# 3ds Max Wavefront OBJ Exporter v0.97b - (c)2007 guruware
# File Created: 05.12.2019 17:12:53

mtllib Lazer_Tower.mtl

#
# object Base
#

v  32.8892 3.0258 11.9707
v  26.8115 3.0258 22.4976
v  17.5000 3.0258 30.3109
v  6.0777 3.0258 34.4683
v  -6.0777 3.0258 34.4683
v  -17.5000 3.0258 30.3109
v  -26.8116 3.0258 22.4976
v  -32.8892 3.0258 11.9707
v  -35.0000 3.0258 -0.0000
v  -32.8892 3.0258 -11.9707
v  -26.8116 3.0258 -22.4976
v  -17.5000 3.0258 -30.3109
v  -6.0777 3.0258 -34.4683
v  6.0777 3.0258 -34.4683
v  17.5000 3.0258 -30.3109
v  26.8116 3.0258 -22.4976
v  32.8892 3.0258 -11.9707
v  35.0000 3.0258 -0.0000
v  32.8892 5.0000 -11.9707
v  35.0000 5.0000 -0.0000
v  26.8116 5.0000 -22.4976
v  17.5000 5.0000 -30.3109
v  6.0777 5.0000 -34.4683
v  -6.0777 5.0000 -34.4683
v  -17.5000 5.0000 -30.3109
v  -26.8116 5.0000 -22.4976
v  -32.8892 5.0000 -11.9707
v  -35.0000 5.0000 -0.0000
v  -32.8892 5.0000 11.9707
v  -26.8116 5.0000 22.4976
v  -17.5000 5.0000 30.3109
v  -6.0777 5.0000 34.4683
v  6.0777 5.0000 34.4683
v  17.5000 5.0000 30.3109
v  26.8115 5.0000 22.4976
v  32.8892 5.0000 11.9707
# 36 vertices

vn 0.6975 -0.6701 0.2539
vn 0.5687 -0.6700 0.4772
vn 0.3712 -0.6700 0.6429
vn 0.1289 -0.6700 0.7311
vn -0.1289 -0.6700 0.7311
vn -0.3712 -0.6700 0.6429
vn -0.5687 -0.6700 0.4772
vn -0.6976 -0.6700 0.2539
vn -0.7423 -0.6700 -0.0000
vn -0.6976 -0.6700 -0.2539
vn -0.5687 -0.6700 -0.4772
vn -0.3712 -0.6701 -0.6428
vn -0.1289 -0.6701 -0.7310
vn 0.1289 -0.6700 -0.7311
vn 0.3711 -0.6701 -0.6429
vn 0.5686 -0.6701 -0.4771
vn 0.6976 -0.6700 -0.2539
vn 0.7423 -0.6701 0.0000
vn 0.6976 0.6700 -0.2539
vn 0.7423 0.6701 -0.0000
vn 0.5686 0.6701 -0.4771
vn 0.3711 0.6701 -0.6429
vn 0.1289 0.6700 -0.7311
vn -0.1289 0.6701 -0.7310
vn -0.3712 0.6701 -0.6428
vn -0.5687 0.6700 -0.4772
vn -0.6976 0.6700 -0.2539
vn -0.7423 0.6700 -0.0000
vn -0.6976 0.6700 0.2539
vn -0.5687 0.6700 0.4772
vn -0.3712 0.6700 0.6429
vn -0.1289 0.6700 0.7311
vn 0.1289 0.6700 0.7311
vn 0.3712 0.6700 0.6429
vn 0.5687 0.6700 0.4772
vn 0.6976 0.6700 0.2539
# 36 vertex normals

vt 67.8892 46.4390 0.0000
vt 61.8115 56.9659 0.0000
vt 52.5000 64.7792 0.0000
vt 41.0777 68.9365 0.0000
vt 28.9223 68.9365 0.0000
vt 17.5000 64.7792 0.0000
vt 8.1884 56.9658 0.0000
vt 2.1108 46.4390 0.0000
vt 0.0000 34.4683 0.0000
vt 2.1108 22.4976 0.0000
vt 8.1884 11.9707 0.0000
vt 17.5000 4.1574 0.0000
vt 28.9223 0.0000 0.0000
vt 41.0777 0.0000 0.0000
vt 52.5000 4.1574 0.0000
vt 61.8116 11.9707 0.0000
vt 67.8892 22.4976 0.0000
vt 70.0000 34.4683 0.0000
vt 164.9336 0.0000 1.0000
vt 177.1509 0.0000 1.0000
vt 177.1509 5.0000 1.0000
vt 164.9336 5.0000 1.0000
vt 189.3682 0.0000 1.0000
vt 189.3682 5.0000 1.0000
vt 201.5855 0.0000 1.0000
vt 201.5855 5.0000 1.0000
vt 213.8028 0.0000 1.0000
vt 213.8028 5.0000 1.0000
vt -6.1087 0.0000 1.0000
vt 6.1087 0.0000 1.0000
vt 6.1087 5.0000 1.0000
vt -6.1087 5.0000 1.0000
vt 18.3260 0.0000 1.0000
vt 18.3260 5.0000 1.0000
vt 30.5433 0.0000 1.0000
vt 30.5433 5.0000 1.0000
vt 42.7606 0.0000 1.0000
vt 42.7606 5.0000 1.0000
vt 54.9779 0.0000 1.0000
vt 54.9779 5.0000 1.0000
vt 67.1952 0.0000 1.0000
vt 67.1952 5.0000 1.0000
vt 79.4125 0.0000 1.0000
vt 79.4125 5.0000 1.0000
vt 91.6298 0.0000 1.0000
vt 91.6298 5.0000 1.0000
vt 103.8471 0.0000 1.0000
vt 103.8471 5.0000 1.0000
vt 116.0644 0.0000 1.0000
vt 116.0644 5.0000 1.0000
vt 128.2817 0.0000 1.0000
vt 128.2817 5.0000 1.0000
vt 140.4990 0.0000 1.0000
vt 140.4990 5.0000 1.0000
vt 152.7163 0.0000 1.0000
vt 152.7163 5.0000 1.0000
vt 67.8892 22.4975 0.0000
vt 61.8116 56.9658 0.0000
vt 61.8115 11.9707 0.0000
# 59 texture coords

o Base
g Base
usemtl wire_177088027
s 1
f 1/1/1 2/2/2 3/3/3 4/4/4 5/5/5 6/6/6 7/7/7 8/8/8 9/9/9 10/10/10 11/11/11 12/12/12 13/13/13 14/14/14 15/15/15 16/16/16 17/17/17 18/18/18 
s 8
f 18/19/18 17/20/17 19/21/19 20/22/20 
f 17/20/17 16/23/16 21/24/21 19/21/19 
f 16/23/16 15/25/15 22/26/22 21/24/21 
f 15/25/15 14/27/14 23/28/23 22/26/22 
f 14/29/14 13/30/13 24/31/24 23/32/23 
f 13/30/13 12/33/12 25/34/25 24/31/24 
f 12/33/12 11/35/11 26/36/26 25/34/25 
f 11/35/11 10/37/10 27/38/27 26/36/26 
f 10/37/10 9/39/9 28/40/28 27/38/27 
f 9/39/9 8/41/8 29/42/29 28/40/28 
f 8/41/8 7/43/7 30/44/30 29/42/29 
f 7/43/7 6/45/6 31/46/31 30/44/30 
f 6/45/6 5/47/5 32/48/32 31/46/31 
f 5/47/5 4/49/4 33/50/33 32/48/32 
f 4/49/4 3/51/3 34/52/34 33/50/33 
f 3/51/3 2/53/2 35/54/35 34/52/34 
f 2/53/2 1/55/1 36/56/36 35/54/35 
f 1/55/1 18/19/18 20/22/20 36/56/36 
s 1
f 36/57/36 20/18/20 19/1/19 21/58/21 22/3/22 23/4/23 24/5/24 25/6/25 26/7/26 27/8/27 28/9/28 29/10/29 30/11/30 31/12/31 32/13/32 33/14/33 34/15/34 35/59/35 
# 20 polygons

#
# object Spoons_
#

v  -1.6683 26.1687 8.5282
v  -1.1753 33.4651 10.3325
v  -1.1643 33.4404 9.5763
v  -1.5462 26.9402 7.9951
v  0.9876 10.8587 4.4535
v  0.6283 0.8772 3.8125
v  -0.6234 0.8765 3.6226
v  -0.2274 11.1934 4.4566
v  0.6250 0.8629 4.7579
v  0.6862 4.3167 5.3456
v  -0.4070 4.1939 5.5491
v  -0.3581 0.8639 5.0472
v  0.9876 10.6754 5.5234
v  0.9064 19.0143 7.3939
v  0.0012 18.6020 7.5306
v  -0.2274 10.5936 5.7347
v  1.6595 34.9601 10.9632
v  1.6787 35.3361 11.0024
v  0.3326 35.3381 11.5863
v  0.3270 34.9622 11.5651
v  1.5614 46.9144 9.1985
v  1.5614 46.9664 9.0966
v  0.4994 47.6986 8.8104
v  0.4994 47.7057 9.0116
v  1.5614 46.9132 8.8493
v  0.4994 47.6438 8.3954
v  2.7362 44.7361 9.6632
v  0.5338 44.8145 10.0002
v  2.1965 34.7048 9.2397
v  2.1890 33.9562 8.9611
v  0.3983 33.9827 8.1690
v  0.4001 34.7313 8.3532
v  0.9279 26.0166 8.7986
v  0.1162 25.9341 8.9729
v  0.9365 33.4660 10.5896
v  0.1079 33.4672 10.9288
v  0.8003 27.1270 7.7447
v  0.8568 19.2574 6.4545
v  -0.0009 19.0524 6.0323
v  0.1108 27.4370 7.8353
v  -2.2161 0.8772 3.8125
v  -1.9600 11.0984 4.7062
v  -1.9600 10.6771 6.0041
v  -2.2161 4.3171 5.4468
v  -1.6882 18.6722 7.3939
v  -1.0300 47.6282 8.9128
v  -1.2322 44.7133 10.4808
v  0.5338 44.8679 10.8770
v  -1.0300 47.6795 8.6166
v  -1.0300 47.6259 8.2796
v  0.3270 34.9543 9.3257
v  -1.0904 34.9553 9.6061
v  -1.0993 35.3312 9.6051
v  0.3326 35.3302 9.3320
v  -1.0629 27.1270 7.7447
v  -0.7611 33.4395 9.3223
v  0.1073 33.4390 9.1840
v  -1.1904 26.0166 8.7986
v  0.3375 34.4000 12.3730
v  -1.4910 34.4632 11.6576
v  -1.5095 33.6929 11.4133
v  0.3462 33.6297 12.1026
v  -1.6386 19.1535 6.3071
v  -2.6289 0.8781 4.0831
v  -2.4696 10.9969 5.0808
v  -2.2161 0.8639 5.0471
v  -2.6316 4.3462 5.1858
v  -2.6297 0.8629 4.7579
v  -2.2126 18.8264 7.0895
v  -2.4674 10.7601 5.6358
v  -0.7760 33.4660 10.5867
v  -1.0904 34.9601 10.9632
v  -1.0993 35.3361 11.0024
v  -1.7755 35.3345 10.5652
v  -1.7595 34.9586 10.5305
v  -1.2322 44.7117 10.0275
v  -3.0176 44.2397 9.7202
v  -2.2164 46.5338 8.4588
v  -1.3212 34.7480 8.6642
v  -1.3294 33.9941 8.4512
v  -2.3223 33.9391 9.1205
v  -2.3206 34.6854 9.3709
v  -2.1688 19.0510 6.7277
v  -1.7783 35.3327 10.0343
v  -1.7624 34.9568 10.0312
v  0.9234 33.4401 9.4987
v  2.7362 44.7385 10.3688
v  -2.3683 33.7713 10.7704
v  -2.3013 34.5214 11.0764
v  2.3003 33.7966 11.1423
v  2.2439 34.5502 11.4370
v  1.7938 36.9529 11.4009
v  2.3186 37.6485 11.4855
v  0.6905 37.6699 12.0137
v  0.3660 36.9546 11.8773
v  2.2799 36.5252 9.2847
v  2.2206 35.6674 9.3024
v  0.4096 35.7200 8.4386
v  0.4267 36.5762 8.4559
v  -1.5156 36.4943 12.0192
v  -1.4938 35.6298 11.8871
v  0.3466 35.6683 12.5833
v  0.3700 36.5270 12.6520
v  -1.1529 36.9463 9.5454
v  -1.3180 37.6468 10.9578
v  0.6905 37.6575 10.7199
v  0.3660 36.9455 9.3156
v  -1.1529 36.9529 11.4009
v  -1.3180 37.6487 11.4855
v  -2.4301 37.7693 10.9564
v  -1.8716 36.9512 10.9372
v  -1.3601 36.5549 8.7324
v  -1.3356 35.6986 8.7394
v  -2.3407 35.6816 9.4500
v  -2.3949 36.5384 9.4639
v  -2.4318 37.7674 10.5021
v  -1.8735 36.9484 10.1390
v  2.3295 36.5026 11.7809
v  2.2791 35.6388 11.6273
v  -2.3854 36.5048 11.3777
v  -2.3426 35.6420 11.2496
v  1.6787 35.3323 9.9366
v  1.6595 34.9565 9.9406
v  0.3295 34.8841 12.1404
v  1.8754 34.9388 11.4141
v  -1.2420 34.9087 11.4904
v  -1.9569 34.9258 11.0111
v  -1.9780 34.9905 9.6480
v  -1.1781 35.0159 9.1072
v  0.3556 35.0101 8.8101
v  1.8686 34.9962 9.5462
v  -2.0509 33.4527 10.4804
v  -2.0098 33.5116 9.2036
v  -1.2937 33.4189 11.0050
v  0.3422 33.3971 11.6184
v  1.9646 33.4625 10.8912
v  1.8963 33.5196 9.0613
v  0.3599 33.5237 8.4453
v  -1.2086 33.5299 8.6928
v  0.3715 36.9360 12.3038
v  2.0094 36.9235 11.6886
v  -1.2968 36.9211 11.7774
v  -2.0775 36.9241 11.2442
v  -2.0845 36.9356 9.6494
v  -1.2373 36.9413 9.0847
v  0.3924 36.9490 8.8411
v  1.7938 36.9479 9.9989
v  1.9920 36.9301 9.4887
v  1.9025 35.3095 11.4326
v  0.3340 35.3202 12.1744
v  1.8782 35.3148 9.5191
v  0.3595 35.3335 8.8082
v  -1.1865 35.3258 9.0962
v  -1.9866 35.3204 9.6307
v  -1.9877 35.3091 11.0226
v  -1.2483 35.3053 11.5366
v  0.3406 35.4614 12.5244
v  2.2276 35.4363 11.5761
v  2.1709 35.4599 9.3300
v  0.4007 35.5083 8.4762
v  -1.3142 35.4885 8.7804
v  -2.2907 35.4730 9.4673
v  -2.2949 35.4383 11.1996
v  -1.4624 35.4269 11.8226
v  0.3364 35.3454 12.3881
v  2.1020 35.3265 11.5112
v  2.0567 35.3423 9.4022
v  0.3840 35.3795 8.5994
v  -1.2645 35.3642 8.8994
v  -2.1727 35.3526 9.5275
v  -2.1766 35.3273 11.1239
v  -1.3805 35.3188 11.7058
v  2.3036 36.7153 11.8001
v  0.3747 36.7406 12.6268
v  -1.4955 36.7085 12.0179
v  -2.3594 36.7182 11.3876
v  -2.3710 36.7510 9.4873
v  -1.3513 36.7666 8.7702
v  0.4262 36.7863 8.5022
v  2.2596 36.7385 9.3039
v  2.1969 36.8556 11.7694
v  0.3752 36.8770 12.5107
v  -1.4226 36.8508 11.9372
v  -2.2568 36.8580 11.3431
v  -2.2675 36.8834 9.5491
v  -1.3103 36.8953 8.8876
v  0.4148 36.9106 8.6306
v  2.1636 36.8735 9.3719
v  -2.2879 33.7315 9.0761
v  -2.3470 33.5801 10.6746
v  -1.4894 33.5016 11.3169
v  0.3475 33.4446 11.9929
v  2.2747 33.6026 11.0530
v  2.1549 33.7495 8.9133
v  0.3937 33.7678 8.1594
v  -1.3178 33.7801 8.4321
v  -2.1838 33.5890 9.1038
v  -2.2412 33.4739 10.5779
v  -1.4175 33.4103 11.1808
v  0.3462 33.3671 11.8315
v  2.1628 33.4913 10.9693
v  2.0573 33.6040 8.9467
v  0.3809 33.6148 8.2515
v  -1.2775 33.6253 8.5127
v  2.1913 34.7502 11.4958
v  0.3348 34.6131 12.4031
v  -1.4595 34.6736 11.6901
v  -2.2491 34.7221 11.1327
v  -2.2822 34.8794 9.4554
v  -1.3036 34.9402 8.7593
v  0.3955 34.9262 8.4443
v  2.1616 34.8954 9.3327
v  2.0684 34.8798 11.4882
v  0.3321 34.7744 12.3255
v  -1.3765 34.8221 11.6344
v  -2.1343 34.8569 11.1110
v  -2.1680 34.9811 9.5477
v  -1.2559 35.0295 8.9070
v  0.3807 35.0191 8.5966
v  2.0523 34.9925 9.4349
v  3.1021 42.0271 10.6818
v  2.8041 39.3841 10.9375
v  0.6375 39.4452 10.9156
v  0.6736 42.0853 10.7421
v  -1.3614 41.9734 11.3576
v  -1.5292 39.3638 11.6022
v  0.6375 39.4753 12.2274
v  0.6736 42.1269 11.9127
v  -1.3614 41.9719 10.9287
v  -1.5292 39.3622 11.1619
v  -3.0720 39.3200 10.5406
v  -3.2673 41.8752 10.4143
v  3.1021 42.0295 11.3574
v  2.8041 39.3865 11.6021
v  -3.0181 44.2425 9.9450
v  -3.2669 41.8779 10.7469
v  -3.0706 39.3224 10.9457
v  2.3186 37.6464 10.8990
v  -2.2178 46.6272 8.8557
v  -2.2172 46.5795 8.6676
v  -1.6683 26.1083 -8.5973
v  -1.5462 26.8837 -8.0697
v  -1.1643 33.3725 -9.6967
v  -1.1753 33.3919 -10.4530
v  0.9876 10.8275 -4.4149
v  -0.2274 11.1622 -4.4204
v  -0.6234 0.8514 -3.5137
v  0.6283 0.8507 -3.7037
v  0.6250 0.8298 -4.6490
v  -0.3581 0.8288 -4.9383
v  -0.4070 4.1551 -5.4635
v  0.6862 4.2794 -5.2610
v  0.9876 10.6366 -5.4835
v  -0.2274 10.5533 -5.6943
v  0.0011 18.5489 -7.5465
v  0.9064 18.9621 -7.4127
v  1.6595 34.8824 -11.0942
v  0.3270 34.8803 -11.6961
v  0.3326 35.2561 -11.7199
v  1.6787 35.2581 -11.1360
v  1.5614 46.8489 -9.4137
v  0.4994 47.6414 -9.2324
v  0.4994 47.6357 -9.0312
v  1.5614 46.9016 -9.3122
v  0.4994 47.5839 -8.6158
v  1.5614 46.8501 -9.0645
v  0.5338 44.7434 -10.2007
v  2.7362 44.6673 -9.8631
v  2.1965 34.6393 -9.3690
v  0.4001 34.6720 -8.4827
v  0.3983 33.9248 -8.2932
v  2.1890 33.8927 -9.0851
v  0.1162 25.8706 -9.0404
v  0.9279 25.9544 -8.8667
v  0.1079 33.3898 -11.0493
v  0.9365 33.3910 -10.7101
v  0.8003 27.0722 -7.8206
v  0.1108 27.3816 -7.9134
v  -0.0009 19.0099 -6.0514
v  0.8568 19.2118 -6.4751
v  -1.9600 11.0654 -4.6693
v  -2.2161 0.8507 -3.7037
v  -2.2161 4.2790 -5.3622
v  -1.9600 10.6349 -5.9642
v  -1.6882 18.6201 -7.4103
v  0.5338 44.7906 -11.0778
v  -1.2322 44.6388 -10.6805
v  -1.0300 47.5646 -9.1331
v  -1.0300 47.6180 -8.8372
v  -1.0300 47.5669 -8.4999
v  0.3270 34.8882 -9.4568
v  0.3326 35.2640 -9.4656
v  -1.0993 35.2631 -9.7387
v  -1.0904 34.8872 -9.7371
v  0.1073 33.3739 -9.3044
v  -0.7611 33.3734 -9.4427
v  -1.0629 27.0722 -7.8206
v  -1.1904 25.9544 -8.8667
v  0.3375 34.3124 -12.5000
v  0.3462 33.5441 -12.2242
v  -1.5095 33.6121 -11.5354
v  -1.4910 34.3807 -11.7851
v  -1.6386 19.1091 -6.3269
v  -2.4696 10.9612 -5.0432
v  -2.6289 0.8498 -3.9742
v  -2.2161 0.8288 -4.9381
v  -2.6297 0.8298 -4.6490
v  -2.6316 4.3100 -5.1014
v  -2.4674 10.7205 -5.5965
v  -2.2126 18.7765 -7.1070
v  -0.7761 33.3910 -10.7072
v  -1.0904 34.8824 -11.0942
v  -1.7595 34.8840 -10.6615
v  -1.7755 35.2597 -10.6989
v  -1.0993 35.2581 -11.1360
v  -2.2164 46.4735 -8.6714
v  -3.0176 44.1706 -9.9166
v  -1.2322 44.6404 -10.2272
v  -1.3212 34.6866 -8.7938
v  -2.3206 34.6190 -9.5000
v  -2.3223 33.8744 -9.2444
v  -1.3294 33.9341 -8.5755
v  -2.1688 19.0035 -6.7468
v  -1.7624 34.8857 -10.1622
v  -1.7783 35.2615 -10.1679
v  0.9234 33.3728 -9.6190
v  2.7362 44.6648 -10.5687
v  -2.3683 33.6950 -10.8930
v  -2.3013 34.4430 -11.2043
v  2.3003 33.7177 -11.2651
v  2.2439 34.4692 -11.5652
v  1.7938 36.8721 -11.5459
v  0.3659 36.8704 -12.0223
v  0.6905 37.5847 -12.1638
v  2.3185 37.5671 -11.6354
v  2.2799 36.4593 -9.4268
v  0.4266 36.5161 -8.5984
v  0.4096 35.6601 -8.5750
v  2.2206 35.6014 -9.4385
v  -1.5156 36.4092 -12.1610
v  0.3700 36.4374 -12.7940
v  0.3466 35.5792 -12.7192
v  -1.4939 35.5456 -12.0228
v  -1.1529 36.8786 -9.6904
v  0.3659 36.8794 -9.4607
v  0.6905 37.5815 -10.8699
v  -1.3180 37.5691 -11.1077
v  -1.1529 36.8721 -11.5459
v  -1.8716 36.8737 -11.0822
v  -2.4301 37.6917 -11.1072
v  -1.3180 37.5673 -11.6355
v  -1.3601 36.4929 -8.8747
v  -2.3949 36.4713 -9.6061
v  -2.3407 35.6145 -9.5861
v  -1.3356 35.6366 -8.8757
v  -1.8735 36.8765 -10.2841
v  -2.4319 37.6929 -10.6529
v  2.3295 36.4191 -11.9227
v  2.2791 35.5564 -11.7631
v  -2.3426 35.5623 -11.3854
v  -2.3854 36.4242 -11.5195
v  1.6787 35.2619 -10.0702
v  1.6595 34.8860 -10.0716
v  1.8754 34.8580 -11.5449
v  0.3295 34.7982 -12.2709
v  -1.2420 34.8273 -11.6211
v  -1.9569 34.8478 -11.1419
v  -1.9780 34.9221 -9.7793
v  -1.1782 34.9513 -9.2386
v  0.3556 34.9476 -8.9416
v  1.8686 34.9285 -9.6775
v  -2.0098 33.4464 -9.3245
v  -2.0509 33.3785 -10.6008
v  -1.2937 33.3410 -11.1251
v  0.3422 33.3149 -11.7384
v  1.9646 33.3854 -11.0116
v  1.8963 33.4554 -9.1822
v  0.3599 33.4638 -8.5663
v  -1.2086 33.4683 -8.8138
v  2.0094 36.8407 -11.8335
v  0.3715 36.8488 -12.4487
v  -1.2968 36.8376 -11.9222
v  -2.0775 36.8444 -11.3890
v  -2.0845 36.8672 -9.7943
v  -1.2373 36.8768 -9.2297
v  0.3923 36.8862 -8.9862
v  1.9920 36.8628 -9.6336
v  1.7938 36.8770 -10.1440
v  0.3340 35.2340 -12.3079
v  1.9025 35.2285 -11.5660
v  1.8782 35.2473 -9.6527
v  0.3595 35.2710 -8.9419
v  -1.1865 35.2613 -9.2299
v  -1.9866 35.2521 -9.7643
v  -1.9877 35.2310 -11.1560
v  -1.2483 35.2236 -11.6700
v  2.2276 35.3543 -11.7105
v  0.3406 35.3727 -12.6589
v  2.1709 35.3937 -9.4646
v  0.4007 35.4481 -8.6111
v  -1.3143 35.4262 -8.9152
v  -2.2907 35.4058 -9.6020
v  -2.2949 35.3589 -11.3340
v  -1.4624 35.3432 -11.9569
v  2.1020 35.2450 -11.6448
v  0.3364 35.2577 -12.5218
v  2.0567 35.2756 -9.5360
v  0.3840 35.3184 -8.7334
v  -1.2646 35.3011 -9.0333
v  -2.1727 35.2850 -9.6614
v  -2.1766 35.2485 -11.2575
v  -1.3805 35.2358 -11.8393
v  0.3747 36.6512 -12.7703
v  2.3036 36.6317 -11.9435
v  -1.4955 36.6234 -12.1612
v  -2.3594 36.6375 -11.5310
v  -2.3710 36.6837 -9.6309
v  -1.3513 36.7043 -8.9139
v  0.4262 36.7260 -8.6461
v  2.2596 36.6725 -9.4474
v  0.3752 36.7884 -12.6552
v  2.1969 36.7722 -11.9137
v  -1.4226 36.7662 -12.0815
v  -2.2568 36.7776 -11.4875
v  -2.2675 36.8157 -9.6937
v  -1.3103 36.8322 -9.0323
v  0.4148 36.8493 -8.7754
v  2.1636 36.8070 -9.5164
v  -2.3470 33.5045 -10.7959
v  -2.2879 33.6672 -9.1985
v  -1.4894 33.4215 -11.4376
v  0.3475 33.3597 -12.1132
v  2.2747 33.5244 -11.1745
v  2.1549 33.6863 -9.0358
v  0.3937 33.7099 -8.2821
v  -1.3178 33.7203 -8.5549
v  -2.2412 33.3990 -10.6985
v  -2.1838 33.5245 -9.2252
v  -1.4175 33.3311 -11.3009
v  0.3462 33.2833 -11.9512
v  2.1628 33.4136 -11.0900
v  2.0573 33.5406 -9.0682
v  0.3809 33.5563 -8.3731
v  -1.2775 33.5650 -8.6344
v  0.3348 34.5253 -12.5316
v  2.1913 34.6688 -11.6254
v  -1.4595 34.5908 -11.8191
v  -2.2491 34.6433 -11.2621
v  -2.2822 34.8123 -9.5858
v  -1.3036 34.8781 -8.8903
v  0.3955 34.8663 -8.5751
v  2.1616 34.8292 -9.4633
v  0.3321 34.6872 -12.4552
v  2.0684 34.7984 -11.6186
v  -1.3765 34.7397 -11.7644
v  -2.1343 34.7782 -11.2412
v  -2.1680 34.9134 -9.6789
v  -1.2559 34.9663 -9.0385
v  0.3807 34.9581 -8.7281
v  2.0523 34.9256 -9.5661
v  3.1021 41.9512 -10.8626
v  0.6736 42.0090 -10.9233
v  0.6375 39.3677 -11.0782
v  2.8041 39.3065 -11.0997
v  -1.3614 41.8928 -11.5380
v  0.6736 42.0424 -12.0942
v  0.6375 39.3887 -12.3902
v  -1.5292 39.2815 -11.7642
v  -1.3614 41.8943 -11.1091
v  -3.2673 41.8012 -10.5940
v  -3.0720 39.2452 -10.7023
v  -1.5292 39.2830 -11.3239
v  3.1021 41.9489 -11.5382
v  2.8041 39.3042 -11.7643
v  -3.2669 41.8015 -10.9267
v  -3.0181 44.1718 -10.1414
v  -3.0707 39.2448 -11.1075
v  2.3185 37.5691 -11.0490
v  -2.2178 46.5641 -9.0690
v  -2.2172 46.5177 -8.8804
# 480 vertices

vn -0.8998 -0.0332 0.4349
vn -0.4251 -0.8583 0.2875
vn -0.5983 -0.7507 -0.2801
vn -0.8311 0.1600 -0.5327
vn 0.7063 0.0885 -0.7024
vn 0.7459 0.0248 -0.6657
vn 0.0126 0.0801 -0.9967
vn -0.0553 0.1460 -0.9877
vn 0.8222 -0.1096 0.5585
vn 0.7327 -0.0915 0.6744
vn 0.0634 -0.0922 0.9937
vn 0.1442 -0.1454 0.9788
vn 0.7918 -0.0934 0.6036
vn 0.7980 -0.1211 0.5904
vn 0.0770 -0.2088 0.9749
vn 0.1625 -0.1240 0.9789
vn 0.5251 0.7985 0.2944
vn 0.3403 -0.9008 0.2696
vn 0.0080 -0.8323 0.5543
vn 0.0059 0.7361 0.6769
vn 0.6532 0.6088 0.4502
vn 0.8291 0.5474 0.1136
vn 0.3002 0.9506 -0.0794
vn 0.2211 0.8830 0.4141
vn 0.6975 0.3177 -0.6423
vn 0.3014 0.4770 -0.8257
vn 0.6907 -0.0074 -0.7231
vn -0.0713 -0.3832 -0.9209
vn 0.8283 0.2709 -0.4905
vn 0.8220 0.0959 -0.5614
vn 0.1269 0.1377 -0.9823
vn 0.1363 0.3250 -0.9358
vn 0.8176 -0.1267 0.5617
vn 0.0436 -0.2216 0.9742
vn 0.3591 -0.8878 0.2877
vn 0.0133 -0.8961 0.4437
vn 0.6394 0.1496 -0.7541
vn 0.8277 0.1159 -0.5491
vn 0.1317 0.1979 -0.9713
vn -0.0064 0.2158 -0.9764
vn -0.3399 0.0904 -0.9361
vn -0.3865 0.1428 -0.9112
vn -0.2442 -0.1167 0.9627
vn -0.3103 -0.0897 0.9464
vn -0.3172 -0.1547 0.9357
vn -0.3274 0.7889 0.5200
vn -0.2956 0.3908 0.8717
vn -0.0064 0.4517 0.8922
vn -0.3581 0.9337 -0.0021
vn -0.2341 0.4749 -0.8483
vn 0.0624 0.8271 -0.5586
vn -0.2212 0.7913 -0.5700
vn -0.2416 -0.7589 -0.6047
vn 0.0763 -0.7743 -0.6282
vn -0.2520 0.2161 -0.9433
vn -0.2784 -0.6155 -0.7373
vn 0.0784 -0.6465 -0.7588
vn -0.3394 -0.1771 0.9238
vn 0.0442 -0.2333 0.9714
vn -0.4789 -0.1597 0.8632
vn -0.4665 -0.3470 0.8136
vn 0.0551 -0.4151 0.9081
vn -0.4089 0.1920 -0.8922
vn -0.8663 0.0550 -0.4965
vn -0.8925 0.0896 -0.4421
vn -0.3051 -0.1095 0.9460
vn -0.8966 -0.0263 0.4420
vn -0.8990 -0.0539 0.4347
vn -0.8964 -0.0386 0.4415
vn -0.8962 -0.0304 0.4426
vn -0.2562 -0.8152 0.5194
vn -0.3576 0.6531 0.6675
vn -0.2854 -0.7821 0.5539
vn -0.3967 -0.8802 0.2606
vn -0.5935 0.7581 0.2704
vn 0.1363 -0.4215 -0.8965
vn -0.6758 -0.1004 -0.7302
vn -0.5015 0.0363 -0.8644
vn -0.3702 0.3469 -0.8617
vn -0.3664 0.1602 -0.9166
vn -0.8751 0.0604 -0.4801
vn -0.8778 0.2390 -0.4151
vn -0.8862 0.1351 -0.4432
vn -0.4520 -0.8562 -0.2503
vn -0.4163 0.8671 -0.2736
vn 0.5273 -0.7938 -0.3030
vn 0.7404 0.4299 0.5168
vn -0.8974 -0.1846 0.4007
vn -0.8841 -0.0084 0.4672
vn 0.8645 -0.2075 0.4577
vn 0.8579 -0.0287 0.5131
vn 0.5786 0.6425 0.5024
vn 0.7423 -0.3979 0.5391
vn 0.0632 -0.1703 0.9834
vn -0.0508 0.7148 0.6975
vn 0.8336 0.0283 -0.5517
vn 0.8258 -0.1623 -0.5400
vn 0.1351 -0.0785 -0.9877
vn 0.1327 0.1150 -0.9845
vn -0.4621 -0.0487 0.8855
vn -0.4687 -0.2387 0.8505
vn 0.0468 -0.1735 0.9837
vn 0.0467 0.0181 0.9987
vn -0.0736 0.9767 -0.2018
vn 0.1241 0.5595 -0.8195
vn 0.0029 0.5838 -0.8119
vn 0.0177 0.9818 -0.1893
vn -0.3213 0.6322 0.7050
vn -0.3489 -0.1520 0.9248
vn -0.7680 -0.4053 0.4959
vn -0.6777 0.6051 0.4178
vn -0.3746 0.0792 -0.9238
vn -0.3787 -0.1153 -0.9183
vn -0.8766 -0.1423 -0.4596
vn -0.8885 0.0488 -0.4563
vn -0.5579 -0.2032 -0.8046
vn -0.5855 0.7065 -0.3975
vn 0.8457 -0.0428 0.5319
vn 0.8401 -0.2274 0.4924
vn -0.8908 -0.0122 0.4543
vn -0.8797 -0.2019 0.4306
vn 0.3899 -0.8818 -0.2655
vn 0.3637 0.8849 -0.2911
vn 0.0012 0.9271 0.3748
vn 0.1417 0.9765 0.1623
vn -0.1090 0.9629 0.2467
vn -0.1820 0.9734 0.1393
vn -0.0274 0.9990 0.0349
vn 0.0224 0.9961 0.0853
vn -0.0022 0.9977 0.0682
vn -0.0001 0.9996 0.0298
vn -0.0705 -0.9974 -0.0168
vn -0.2128 -0.9639 -0.1597
vn 0.0079 -0.9977 -0.0680
vn 0.0081 -0.9920 -0.1262
vn 0.0882 -0.9959 0.0215
vn 0.2304 -0.9559 -0.1822
vn 0.0317 -0.9553 -0.2940
vn -0.1025 -0.9517 -0.2894
vn 0.0046 0.9830 0.1837
vn 0.1917 0.9669 0.1687
vn -0.0953 0.9755 0.1984
vn -0.1978 0.9738 0.1125
vn -0.1536 0.9853 -0.0747
vn -0.0508 0.9919 -0.1168
vn 0.0154 0.9948 -0.1005
vn 0.2808 0.9156 -0.2878
vn 0.1639 0.9810 -0.1036
vn 0.0273 -0.9993 0.0264
vn 0.0038 -0.9980 0.0627
vn 0.0570 -0.9974 -0.0440
vn 0.0137 -0.9914 -0.1301
vn -0.0315 -0.9954 -0.0907
vn -0.0735 -0.9963 -0.0453
vn -0.0372 -0.9993 0.0085
vn -0.0009 -1.0000 0.0083
vn 0.0388 -0.5076 0.8607
vn 0.7325 -0.5408 0.4135
vn 0.7254 -0.4930 -0.4804
vn 0.1185 -0.4321 -0.8940
vn -0.3326 -0.4715 -0.8167
vn -0.7728 -0.4787 -0.4167
vn -0.7679 -0.5306 0.3589
vn -0.3968 -0.5789 0.7123
vn 0.0222 -0.8872 0.4608
vn 0.3736 -0.8959 0.2404
vn 0.4013 -0.8739 -0.2742
vn 0.0660 -0.8479 -0.5261
vn -0.1778 -0.8741 -0.4520
vn -0.4329 -0.8683 -0.2423
vn -0.4033 -0.8979 0.1765
vn -0.1747 -0.9291 0.3258
vn 0.7913 0.3114 0.5261
vn 0.0422 0.3792 0.9244
vn -0.4323 0.3252 0.8410
vn -0.8283 0.3434 0.4428
vn -0.8195 0.3987 -0.4116
vn -0.3394 0.4394 -0.8317
vn 0.1193 0.4690 -0.8751
vn 0.7753 0.3756 -0.5078
vn 0.5200 0.7545 0.4004
vn 0.0246 0.8130 0.5817
vn -0.2724 0.7888 0.5510
vn -0.5441 0.7830 0.3014
vn -0.5160 0.8194 -0.2497
vn -0.1994 0.8551 -0.4785
vn 0.0689 0.8699 -0.4883
vn 0.5049 0.8006 -0.3226
vn -0.8099 -0.2921 -0.5087
vn -0.8108 -0.5098 0.2876
vn -0.3899 -0.6662 0.6357
vn 0.0530 -0.7061 0.7061
vn 0.7842 -0.5132 0.3487
vn 0.7646 -0.2554 -0.5918
vn 0.1156 -0.2377 -0.9644
vn -0.3481 -0.2162 -0.9122
vn -0.5412 -0.7472 -0.3857
vn -0.4511 -0.8867 0.1012
vn -0.1617 -0.9634 0.2139
vn 0.0333 -0.9748 0.2205
vn 0.4413 -0.8796 0.1777
vn 0.5311 -0.7182 -0.4496
vn 0.0766 -0.7203 -0.6894
vn -0.2412 -0.7090 -0.6626
vn 0.7734 0.3233 0.5453
vn 0.0334 0.1354 0.9902
vn -0.4559 0.2261 0.8608
vn -0.7996 0.3357 0.4979
vn -0.7725 0.5573 -0.3043
vn -0.3079 0.6654 -0.6801
vn 0.1184 0.6391 -0.7599
vn 0.7275 0.5789 -0.3684
vn 0.4745 0.7655 0.4347
vn 0.0163 0.6360 0.7715
vn -0.2990 0.7293 0.6154
vn -0.5117 0.7765 0.3677
vn -0.4003 0.9105 -0.1040
vn -0.1232 0.9642 -0.2350
vn 0.0549 0.9526 -0.2994
vn 0.3623 0.9207 -0.1452
vn 0.7542 -0.1273 -0.6442
vn 0.7241 -0.1691 -0.6687
vn -0.0526 0.0195 -0.9984
vn -0.0542 -0.1683 -0.9843
vn -0.2895 0.2059 0.9348
vn -0.3374 0.0015 0.9414
vn -0.0036 0.0034 1.0000
vn -0.0189 0.2368 0.9714
vn 0.0919 -0.2031 -0.9748
vn 0.1456 0.0185 -0.9892
vn -0.6003 -0.1618 -0.7832
vn -0.6651 -0.1064 -0.7392
vn 0.7775 0.1345 0.6143
vn 0.7836 -0.1389 0.6056
vn -0.7985 0.3436 0.4943
vn -0.7982 0.1244 0.5894
vn -0.8258 -0.1692 0.5380
vn 0.8043 -0.2307 -0.5476
vn -0.7592 0.5945 0.2649
vn 0.4010 0.8921 -0.2081
vn -0.8998 -0.0362 -0.4347
vn -0.8311 0.1637 0.5315
vn -0.5983 -0.7487 0.2854
vn -0.4251 -0.8603 -0.2815
vn 0.7063 0.0934 0.7018
vn -0.0553 0.1529 0.9867
vn 0.0126 0.0871 0.9961
vn 0.7459 0.0294 0.6655
vn 0.8222 -0.1135 -0.5577
vn 0.1442 -0.1523 -0.9778
vn 0.0634 -0.0992 -0.9930
vn 0.7327 -0.0963 -0.6737
vn 0.7918 -0.0977 -0.6029
vn 0.1625 -0.1309 -0.9780
vn 0.0770 -0.2157 -0.9734
vn 0.7980 -0.1252 -0.5895
vn 0.5251 0.7964 -0.3000
vn 0.0059 0.7313 -0.6821
vn 0.0080 -0.8361 -0.5485
vn 0.3403 -0.9027 -0.2632
vn 0.6532 0.6056 -0.4545
vn 0.2211 0.8800 -0.4203
vn 0.3002 0.9511 0.0727
vn 0.8291 0.5466 -0.1174
vn 0.3014 0.4828 0.8223
vn 0.6975 0.3222 0.6401
vn -0.0713 -0.3767 0.9236
vn 0.6907 -0.0023 0.7232
vn 0.8283 0.2743 0.4885
vn 0.1363 0.3316 0.9335
vn 0.1269 0.1446 0.9813
vn 0.8220 0.0999 0.5607
vn 0.0436 -0.2285 -0.9726
vn 0.8176 -0.1307 -0.5608
vn 0.0133 -0.8992 -0.4374
vn 0.3591 -0.8899 -0.2815
vn 0.6394 0.1549 0.7531
vn -0.0064 0.2226 0.9749
vn 0.1317 0.2047 0.9699
vn 0.8277 0.1198 0.5483
vn -0.3865 0.1492 0.9102
vn -0.3399 0.0970 0.9355
vn -0.3103 -0.0963 -0.9457
vn -0.2442 -0.1234 -0.9618
vn -0.3172 -0.1612 -0.9345
vn -0.0064 0.4454 -0.8953
vn -0.2956 0.3846 -0.8745
vn -0.3274 0.7852 -0.5256
vn -0.3581 0.9337 -0.0045
vn -0.2341 0.4809 0.8450
vn 0.0624 0.8310 0.5527
vn 0.0763 -0.7699 0.6336
vn -0.2416 -0.7547 0.6100
vn -0.2212 0.7953 0.5644
vn 0.0784 -0.6412 0.7634
vn -0.2784 -0.6103 0.7416
vn -0.2520 0.2227 0.9417
vn -0.3394 -0.1836 -0.9226
vn 0.0442 -0.2401 -0.9697
vn 0.0551 -0.4215 -0.9052
vn -0.4665 -0.3527 -0.8112
vn -0.4789 -0.1658 -0.8621
vn -0.4089 0.1983 0.8908
vn -0.8925 0.0928 0.4414
vn -0.8663 0.0585 0.4961
vn -0.3051 -0.1162 -0.9452
vn -0.8990 -0.0569 -0.4343
vn -0.8966 -0.0294 -0.4418
vn -0.8962 -0.0335 -0.4424
vn -0.8964 -0.0417 -0.4412
vn -0.2562 -0.8189 -0.5136
vn -0.3576 0.6484 -0.6721
vn -0.5935 0.7562 -0.2757
vn -0.3967 -0.8820 -0.2544
vn -0.2854 -0.7860 -0.5484
vn -0.5015 0.0424 0.8641
vn -0.6758 -0.0952 0.7309
vn 0.1363 -0.4152 0.8995
vn -0.3702 0.3530 0.8593
vn -0.8778 0.2419 0.4134
vn -0.8751 0.0638 0.4797
vn -0.3664 0.1666 0.9154
vn -0.8862 0.1382 0.4422
vn -0.4163 0.8690 0.2675
vn -0.4520 -0.8544 0.2563
vn 0.5273 -0.7917 0.3086
vn 0.7404 0.4262 -0.5198
vn -0.8974 -0.1874 -0.3994
vn -0.8841 -0.0117 -0.4672
vn 0.8645 -0.2108 -0.4563
vn 0.8579 -0.0323 -0.5129
vn 0.5786 0.6390 -0.5069
vn -0.0508 0.7099 -0.7025
vn 0.0632 -0.1772 -0.9821
vn 0.7423 -0.4016 -0.5363
vn 0.8336 0.0322 0.5514
vn 0.1327 0.1220 0.9836
vn 0.1351 -0.0716 0.9882
vn 0.8258 -0.1585 0.5412
vn -0.4621 -0.0550 -0.8851
vn 0.0467 0.0111 -0.9988
vn 0.0468 -0.1804 -0.9825
vn -0.4687 -0.2447 -0.8488
vn -0.0736 0.9781 0.1949
vn 0.0177 0.9831 0.1824
vn 0.0029 0.5895 0.8078
vn 0.1241 0.5652 0.8155
vn -0.3213 0.6273 -0.7094
vn -0.6777 0.6022 -0.4220
vn -0.7680 -0.4088 -0.4930
vn -0.3489 -0.1585 -0.9237
vn -0.3746 0.0857 0.9232
vn -0.8885 0.0520 0.4560
vn -0.8766 -0.1390 0.4606
vn -0.3787 -0.1088 0.9191
vn -0.5855 0.7093 0.3925
vn -0.5579 -0.1976 0.8060
vn 0.8457 -0.0466 -0.5316
vn 0.8401 -0.2308 -0.4908
vn -0.8797 -0.2050 -0.4291
vn -0.8908 -0.0154 -0.4542
vn 0.3899 -0.8799 0.2717
vn 0.3637 0.8869 0.2848
vn 0.1417 0.9753 -0.1692
vn 0.0012 0.9244 -0.3814
vn -0.1090 0.9612 -0.2535
vn -0.1820 0.9724 -0.1461
vn -0.0274 0.9987 -0.0419
vn 0.0224 0.9955 -0.0923
vn -0.0022 0.9972 -0.0752
vn -0.0001 0.9993 -0.0368
vn -0.2128 -0.9628 0.1665
vn -0.0705 -0.9972 0.0238
vn 0.0079 -0.9972 0.0750
vn 0.0081 -0.9911 0.1332
vn 0.0882 -0.9960 -0.0145
vn 0.2304 -0.9546 0.1890
vn 0.0317 -0.9532 0.3008
vn -0.1025 -0.9496 0.2961
vn 0.1917 0.9656 -0.1755
vn 0.0046 0.9817 -0.1906
vn -0.0953 0.9741 -0.2053
vn -0.1978 0.9729 -0.1193
vn -0.1536 0.9858 0.0678
vn -0.0508 0.9927 0.1098
vn 0.0154 0.9955 0.0935
vn 0.1639 0.9817 0.0967
vn 0.2808 0.9176 0.2814
vn 0.0038 -0.9984 -0.0556
vn 0.0273 -0.9994 -0.0193
vn 0.0570 -0.9971 0.0511
vn 0.0137 -0.9905 0.1371
vn -0.0315 -0.9947 0.0977
vn -0.0735 -0.9959 0.0524
vn -0.0372 -0.9993 -0.0015
vn -0.0009 -1.0000 -0.0013
vn 0.7325 -0.5437 -0.4097
vn 0.0388 -0.5137 -0.8571
vn 0.7254 -0.4896 0.4838
vn 0.1185 -0.4258 0.8970
vn -0.3326 -0.4658 0.8200
vn -0.7728 -0.4758 0.4201
vn -0.7679 -0.5331 -0.3551
vn -0.3968 -0.5839 -0.7082
vn 0.3736 -0.8976 -0.2341
vn 0.0222 -0.8904 -0.4546
vn 0.4013 -0.8720 0.2804
vn 0.0660 -0.8441 0.5320
vn -0.1778 -0.8709 0.4581
vn -0.4329 -0.8666 0.2484
vn -0.4033 -0.8991 -0.1701
vn -0.1747 -0.9314 -0.3193
vn 0.0422 0.3727 -0.9270
vn 0.7913 0.3077 -0.5283
vn -0.4323 0.3193 -0.8433
vn -0.8283 0.3403 -0.4452
vn -0.8195 0.4016 0.4088
vn -0.3394 0.4453 0.8286
vn 0.1193 0.4752 0.8718
vn 0.7753 0.3791 0.5052
vn 0.0246 0.8089 -0.5874
vn 0.5200 0.7517 -0.4057
vn -0.2724 0.7849 -0.5565
vn -0.5441 0.7809 -0.3069
vn -0.5160 0.8211 0.2439
vn -0.1994 0.8585 0.4725
vn 0.0689 0.8734 0.4822
vn 0.5049 0.8029 0.3170
vn -0.8108 -0.5118 -0.2840
vn -0.8099 -0.2885 0.5107
vn -0.3899 -0.6707 -0.6310
vn 0.0530 -0.7110 -0.7012
vn 0.7842 -0.5156 -0.3451
vn 0.7646 -0.2512 0.5936
vn 0.1156 -0.2309 0.9661
vn -0.3481 -0.2098 0.9137
vn -0.4511 -0.8874 -0.0950
vn -0.5412 -0.7445 0.3910
vn -0.1617 -0.9649 -0.2071
vn 0.0333 -0.9763 -0.2136
vn 0.4413 -0.8808 -0.1715
vn 0.5311 -0.7150 0.4546
vn 0.0766 -0.7154 0.6945
vn -0.2412 -0.7043 0.6676
vn 0.0334 0.1284 -0.9912
vn 0.7734 0.3194 -0.5476
vn -0.4559 0.2200 -0.8624
vn -0.7996 0.3322 -0.5002
vn -0.7725 0.5594 0.3003
vn -0.3079 0.6701 0.6754
vn 0.1184 0.6445 0.7554
vn 0.7275 0.5815 0.3643
vn 0.0163 0.6306 -0.7760
vn 0.4745 0.7624 -0.4401
vn -0.2990 0.7249 -0.6205
vn -0.5117 0.7739 -0.3731
vn -0.4003 0.9112 0.0976
vn -0.1232 0.9658 0.2282
vn 0.0549 0.9546 0.2926
vn 0.3623 0.9217 0.1387
vn 0.7542 -0.1227 0.6451
vn -0.0542 -0.1613 0.9854
vn -0.0526 0.0265 0.9983
vn 0.7241 -0.1644 0.6698
vn -0.2895 0.1993 -0.9362
vn -0.0189 0.2300 -0.9730
vn -0.0036 -0.0037 -1.0000
vn -0.3374 -0.0051 -0.9413
vn 0.0919 -0.1962 0.9762
vn -0.6651 -0.1011 0.7399
vn -0.6003 -0.1563 0.7843
vn 0.1456 0.0254 0.9890
vn 0.7775 0.1302 -0.6152
vn 0.7836 -0.1432 -0.6046
vn -0.7982 0.1202 -0.5902
vn -0.7985 0.3401 -0.4967
vn -0.8258 -0.1730 -0.5368
vn 0.8043 -0.2269 0.5492
vn -0.7592 0.5927 -0.2691
vn 0.4010 0.8935 0.2018
# 480 vertex normals

o Spoons_
g Spoons_
usemtl wire_255255255
s 1
f 37//37 38//38 39//39 40//40 
s 2
f 41//41 42//42 43//43 44//44 
f 45//45 46//46 47//47 48//48 
s 4
f 49//49 50//50 51//51 52//52 
s 1
f 53//53 54//54 55//55 56//56 
f 57//57 58//58 59//59 60//60 
s 2
f 58//58 61//61 62//62 59//59 
s 1
f 61//61 63//63 64//64 62//62 
f 65//65 66//66 67//67 68//68 
s 4
f 50//50 69//69 70//70 51//51 
f 69//69 71//71 72//72 70//70 
s 2
f 73//73 74//74 75//75 76//76 
f 74//74 41//41 44//44 75//75 
s 1
f 74//74 73//73 69//69 50//50 
s 2
f 43//43 77//77 78//78 44//44 
s 4
f 52//52 79//79 80//80 47//47 
f 51//51 81//81 79//79 52//52 
s 2
f 60//60 82//82 83//83 84//84 
s 4
f 59//59 85//85 82//82 60//60 
s 2
f 62//62 86//86 85//85 59//59 
s 1
f 87//87 88//88 89//89 90//90 
s 2
f 76//76 91//91 92//92 93//93 
s 4
f 70//70 94//94 81//81 51//51 
s 1
f 95//95 96//96 97//97 98//98 
s 2
f 75//75 99//99 91//91 76//76 
f 44//44 78//78 99//99 75//75 
f 78//78 77//77 100//100 101//101 
f 102//102 80//80 103//103 104//104 
s 4
f 79//79 81//81 105//105 106//106 
f 81//81 94//94 37//37 105//105 
f 94//94 107//107 38//38 37//37 
s 2
f 108//108 109//109 110//110 111//111 
s 1
f 86//86 112//112 113//113 114//114 
s 2
f 115//115 116//116 117//117 118//118 
f 91//91 99//99 119//119 40//40 
f 99//99 78//78 101//101 119//119 
s 4
f 46//46 49//49 52//52 47//47 
s 2
f 80//80 102//102 48//48 47//47 
s 4
f 80//80 79//79 106//106 103//103 
f 111//111 110//110 120//120 121//121 
s 1
f 100//100 104//104 103//103 
f 105//105 37//37 40//40 119//119 
f 106//106 105//105 119//119 101//101 
f 103//103 106//106 101//101 100//100 
f 46//46 45//45 42//42 
f 49//49 46//46 42//42 41//41 
f 50//50 49//49 41//41 74//74 
f 73//73 122//122 71//71 69//69 
s 4
f 61//61 58//58 57//57 
f 57//57 123//123 63//63 61//61 
f 124//124 125//125 118//118 117//117 
s 2
f 122//122 73//73 76//76 93//93 
f 126//126 127//127 95//95 98//98 
f 116//116 115//115 68//68 67//67 
s 4
f 107//107 94//94 70//70 72//72 
s 1
f 97//97 96//96 125//125 124//124 
s 2
f 92//92 91//91 40//40 39//39 
s 4
f 66//66 65//65 127//127 126//126 
s 8
f 128//128 129//129 130//130 131//131 
s 1
f 132//132 133//133 134//134 135//135 
f 136//136 137//137 138//138 139//139 
f 140//140 141//141 142//142 143//143 
s 2
f 144//144 145//145 146//146 147//147 
f 148//148 149//149 150//150 151//151 
s 8
f 147//147 146//146 152//152 153//153 
s 2
f 154//154 155//155 133//133 132//132 
s 4
f 155//155 154//154 139//139 138//138 
s 2
f 149//149 148//148 135//135 134//134 
s 1
f 137//137 136//136 156//156 157//157 
s 4
f 157//157 156//156 151//151 150//150 
s 2
f 158//158 159//159 87//87 90//90 
f 109//109 108//108 56//56 55//55 
s 1
f 89//89 88//88 121//121 120//120 
s 4
f 54//54 53//53 159//159 158//158 
s 8
f 53//53 56//56 160//160 161//161 
f 56//56 108//108 162//162 160//160 
f 108//108 111//111 163//163 162//162 
f 111//111 121//121 164//164 163//163 
f 121//121 88//88 165//165 164//164 
f 88//88 87//87 166//166 165//165 
f 87//87 159//159 167//167 166//166 
f 159//159 53//53 161//161 167//167 
f 39//39 38//38 168//168 169//169 
f 38//38 107//107 170//170 168//168 
f 107//107 72//72 171//171 170//170 
f 72//72 71//71 172//172 171//171 
f 71//71 122//122 173//173 172//172 
f 122//122 93//93 174//174 173//173 
f 93//93 92//92 175//175 174//174 
f 92//92 39//39 169//169 175//175 
s 16
f 128//128 131//131 176//176 177//177 
f 131//131 144//144 178//178 176//176 
f 144//144 147//147 179//179 178//178 
f 147//147 153//153 180//180 179//179 
f 153//153 140//140 181//181 180//180 
f 140//140 143//143 182//182 181//181 
f 143//143 183//183 184//184 182//182 
f 183//183 128//128 177//177 184//184 
s 8
f 55//55 54//54 185//185 186//186 
f 54//54 158//158 187//187 185//185 
f 158//158 90//90 188//188 187//187 
f 90//90 89//89 189//189 188//188 
f 89//89 120//120 190//190 189//189 
f 120//120 110//110 191//191 190//190 
f 110//110 109//109 192//192 191//191 
f 109//109 55//55 186//186 192//192 
s 4
f 138//138 193//193 194//194 155//155 
s 2
f 155//155 194//194 195//195 133//133 
s 1
f 133//133 195//195 196//196 134//134 
s 2
f 134//134 196//196 197//197 149//149 
f 149//149 197//197 198//198 150//150 
s 4
f 150//150 198//198 199//199 157//157 
s 1
f 157//157 199//199 200//200 137//137 
f 137//137 200//200 193//193 138//138 
s 4
f 193//193 201//201 202//202 194//194 
s 8
f 201//201 186//186 185//185 202//202 
s 16
f 194//194 202//202 203//203 195//195 
s 8
f 202//202 185//185 187//187 203//203 
s 32
f 195//195 203//203 204//204 196//196 
s 8
f 203//203 187//187 188//188 204//204 
s 32
f 196//196 204//204 205//205 197//197 
s 8
f 204//204 188//188 189//189 205//205 
s 32
f 197//197 205//205 206//206 198//198 
s 8
f 205//205 189//189 190//190 206//206 
s 16
f 198//198 206//206 207//207 199//199 
s 8
f 206//206 190//190 191//191 207//207 
s 2
f 199//199 207//207 208//208 200//200 
s 8
f 207//207 191//191 192//192 208//208 
s 2
f 200//200 208//208 201//201 193//193 
s 8
f 208//208 192//192 186//186 201//201 
s 4
f 154//154 209//209 210//210 139//139 
s 1
f 139//139 210//210 211//211 136//136 
f 136//136 211//211 212//212 156//156 
s 4
f 156//156 212//212 213//213 151//151 
s 2
f 151//151 213//213 214//214 148//148 
f 148//148 214//214 215//215 135//135 
s 1
f 135//135 215//215 216//216 132//132 
s 2
f 132//132 216//216 209//209 154//154 
s 8
f 209//209 217//217 218//218 210//210 
s 16
f 217//217 177//177 176//176 218//218 
s 2
f 210//210 218//218 219//219 211//211 
s 16
f 218//218 176//176 178//178 219//219 
s 2
f 211//211 219//219 220//220 212//212 
s 16
f 219//219 178//178 179//179 220//220 
s 8
f 212//212 220//220 221//221 213//213 
s 16
f 220//220 179//179 180//180 221//221 
s 32
f 213//213 221//221 222//222 214//214 
s 16
f 221//221 180//180 181//181 222//222 
s 32
f 214//214 222//222 223//223 215//215 
s 16
f 222//222 181//181 182//182 223//223 
s 32
f 215//215 223//223 224//224 216//216 
s 16
f 223//223 182//182 184//184 224//224 
s 64
f 216//216 224//224 217//217 209//209 
s 16
f 224//224 184//184 177//177 217//217 
s 4
f 117//117 225//225 226//226 124//124 
s 1
f 124//124 226//226 227//227 97//97 
f 97//97 227//227 228//228 98//98 
s 2
f 98//98 228//228 229//229 126//126 
s 4
f 126//126 229//229 230//230 66//66 
s 1
f 66//66 230//230 231//231 67//67 
s 2
f 67//67 231//231 232//232 116//116 
f 116//116 232//232 225//225 117//117 
s 16
f 225//225 233//233 234//234 226//226 
s 8
f 233//233 169//169 168//168 234//234 
s 32
f 226//226 234//234 235//235 227//227 
s 8
f 234//234 168//168 170//170 235//235 
s 32
f 227//227 235//235 236//236 228//228 
s 8
f 235//235 170//170 171//171 236//236 
s 16
f 228//228 236//236 237//237 229//229 
s 8
f 236//236 171//171 172//172 237//237 
s 32
f 229//229 237//237 238//238 230//230 
s 8
f 237//237 172//172 173//173 238//238 
s 64
f 230//230 238//238 239//239 231//231 
s 8
f 238//238 173//173 174//174 239//239 
s 64
f 231//231 239//239 240//240 232//232 
s 8
f 239//239 174//174 175//175 240//240 
s 64
f 232//232 240//240 233//233 225//225 
s 8
f 240//240 175//175 169//169 233//233 
s 2
f 127//127 241//241 242//242 95//95 
s 1
f 95//95 242//242 243//243 96//96 
f 96//96 243//243 244//244 125//125 
s 4
f 125//125 244//244 245//245 118//118 
s 2
f 118//118 245//245 246//246 115//115 
f 115//115 246//246 247//247 68//68 
s 1
f 68//68 247//247 248//248 65//65 
s 4
f 65//65 248//248 241//241 127//127 
s 16
f 241//241 249//249 250//250 242//242 
s 8
f 249//249 161//161 160//160 250//250 
s 32
f 242//242 250//250 251//251 243//243 
s 8
f 250//250 160//160 162//162 251//251 
s 32
f 243//243 251//251 252//252 244//244 
s 8
f 251//251 162//162 163//163 252//252 
s 16
f 244//244 252//252 253//253 245//245 
s 8
f 252//252 163//163 164//164 253//253 
s 32
f 245//245 253//253 254//254 246//246 
s 8
f 253//253 164//164 165//165 254//254 
s 32
f 246//246 254//254 255//255 247//247 
s 8
f 254//254 165//165 166//166 255//255 
s 32
f 247//247 255//255 256//256 248//248 
s 8
f 255//255 166//166 167//167 256//256 
s 64
f 248//248 256//256 249//249 241//241 
s 8
f 256//256 167//167 161//161 249//249 
s 1
f 257//257 258//258 259//259 260//260 
s 2
f 261//261 262//262 263//263 264//264 
s 1
f 265//265 266//266 267//267 268//268 
s 4
f 269//269 270//270 258//258 257//257 
s 8
f 269//269 123//123 84//84 264//264 
s 1
f 265//265 112//112 64//64 260//260 
s 2
f 261//261 83//83 271//271 272//272 
s 8
f 272//272 271//271 113//113 268//268 
f 129//129 270//270 263//263 130//130 
s 1
f 141//141 266//266 259//259 142//142 
s 2
f 145//145 262//262 273//273 146//146 
s 8
f 146//146 273//273 267//267 152//152 
s 1
f 274//274 183//183 143//143 142//142 
s 2
f 145//145 144//144 131//131 130//130 
s 1
f 141//141 140//140 153//153 152//152 
s 4
f 129//129 128//128 183//183 274//274 
s 1
f 258//258 274//274 142//142 259//259 
s 2
f 262//262 145//145 130//130 263//263 
s 1
f 266//266 141//141 152//152 267//267 
s 4
f 270//270 129//129 274//274 258//258 
s 8
f 270//270 269//269 264//264 263//263 
s 1
f 266//266 265//265 260//260 259//259 
s 2
f 262//262 261//261 272//272 273//273 
s 8
f 273//273 272//272 268//268 267//267 
s 1
f 63//63 257//257 260//260 64//64 
s 2
f 83//83 261//261 264//264 84//84 
s 1
f 112//112 265//265 268//268 113//113 
s 4
f 123//123 269//269 257//257 63//63 
s 8
f 123//123 57//57 60//60 84//84 
s 1
f 112//112 86//86 62//62 64//64 
s 2
f 83//83 82//82 275//275 271//271 
s 8
f 271//271 275//275 276//276 114//114 113//113 
s off
f 85//85 276//276 275//275 82//82 
f 85//85 86//86 114//114 276//276 
s 1
f 277//277 278//278 279//279 280//280 
s 2
f 281//281 282//282 283//283 284//284 
f 285//285 286//286 287//287 288//288 
s 4
f 289//289 290//290 291//291 292//292 
s 1
f 293//293 294//294 295//295 296//296 
f 297//297 298//298 299//299 300//300 
s 2
f 300//300 299//299 301//301 302//302 
s 1
f 302//302 301//301 303//303 304//304 
f 305//305 306//306 307//307 308//308 
s 4
f 292//292 291//291 309//309 310//310 
f 310//310 309//309 311//311 312//312 
s 2
f 313//313 314//314 315//315 316//316 
f 316//316 315//315 282//282 281//281 
s 1
f 316//316 292//292 310//310 313//313 
s 2
f 283//283 282//282 317//317 318//318 
s 4
f 290//290 287//287 319//319 320//320 
f 291//291 290//290 320//320 321//321 
s 2
f 298//298 322//322 323//323 324//324 
s 4
f 299//299 298//298 324//324 325//325 
s 2
f 301//301 299//299 325//325 326//326 
s 1
f 327//327 328//328 329//329 330//330 
s 2
f 314//314 331//331 332//332 333//333 
s 4
f 309//309 291//291 321//321 334//334 
s 1
f 335//335 336//336 337//337 338//338 
s 2
f 315//315 314//314 333//333 339//339 
f 282//282 315//315 339//339 317//317 
f 317//317 340//340 341//341 318//318 
f 342//342 343//343 344//344 319//319 
s 4
f 320//320 345//345 346//346 321//321 
f 321//321 346//346 277//277 334//334 
f 334//334 277//277 280//280 347//347 
s 2
f 348//348 349//349 350//350 351//351 
s 1
f 326//326 352//352 353//353 354//354 
s 2
f 355//355 356//356 357//357 358//358 
f 333//333 278//278 359//359 339//339 
f 339//339 359//359 340//340 317//317 
s 4
f 288//288 287//287 290//290 289//289 
s 2
f 319//319 287//287 286//286 342//342 
s 4
f 319//319 344//344 345//345 320//320 
f 349//349 360//360 361//361 350//350 
s 1
f 341//341 344//344 343//343 
f 346//346 359//359 278//278 277//277 
f 345//345 340//340 359//359 346//346 
f 344//344 341//341 340//340 345//345 
f 288//288 284//284 285//285 
f 289//289 281//281 284//284 288//288 
f 292//292 316//316 281//281 289//289 
f 313//313 310//310 312//312 362//362 
s 4
f 302//302 297//297 300//300 
f 297//297 302//302 304//304 363//363 
f 364//364 357//357 356//356 365//365 
s 2
f 362//362 331//331 314//314 313//313 
f 366//366 336//336 335//335 367//367 
f 358//358 307//307 306//306 355//355 
s 4
f 347//347 311//311 309//309 334//334 
s 1
f 337//337 364//364 365//365 338//338 
s 2
f 332//332 279//279 278//278 333//333 
s 4
f 308//308 366//366 367//367 305//305 
s 8
f 368//368 369//369 370//370 371//371 
s 1
f 372//372 373//373 374//374 375//375 
f 376//376 377//377 378//378 379//379 
f 380//380 381//381 382//382 383//383 
s 2
f 384//384 385//385 386//386 387//387 
f 388//388 389//389 390//390 391//391 
s 8
f 385//385 392//392 393//393 386//386 
s 2
f 394//394 372//372 375//375 395//395 
s 4
f 395//395 378//378 377//377 394//394 
s 2
f 391//391 374//374 373//373 388//388 
s 1
f 379//379 396//396 397//397 376//376 
s 4
f 396//396 390//390 389//389 397//397 
s 2
f 398//398 328//328 327//327 399//399 
f 351//351 295//295 294//294 348//348 
s 1
f 329//329 361//361 360//360 330//330 
s 4
f 296//296 398//398 399//399 293//293 
s 8
f 293//293 400//400 401//401 294//294 
f 294//294 401//401 402//402 348//348 
f 348//348 402//402 403//403 349//349 
f 349//349 403//403 404//404 360//360 
f 360//360 404//404 405//405 330//330 
f 330//330 405//405 406//406 327//327 
f 327//327 406//406 407//407 399//399 
f 399//399 407//407 400//400 293//293 
f 279//279 408//408 409//409 280//280 
f 280//280 409//409 410//410 347//347 
f 347//347 410//410 411//411 311//311 
f 311//311 411//411 412//412 312//312 
f 312//312 412//412 413//413 362//362 
f 362//362 413//413 414//414 331//331 
f 331//331 414//414 415//415 332//332 
f 332//332 415//415 408//408 279//279 
s 16
f 368//368 416//416 417//417 369//369 
f 369//369 417//417 418//418 384//384 
f 384//384 418//418 419//419 385//385 
f 385//385 419//419 420//420 392//392 
f 392//392 420//420 421//421 380//380 
f 380//380 421//421 422//422 381//381 
f 381//381 422//422 423//423 424//424 
f 424//424 423//423 416//416 368//368 
s 8
f 295//295 425//425 426//426 296//296 
f 296//296 426//426 427//427 398//398 
f 398//398 427//427 428//428 328//328 
f 328//328 428//428 429//429 329//329 
f 329//329 429//429 430//430 361//361 
f 361//361 430//430 431//431 350//350 
f 350//350 431//431 432//432 351//351 
f 351//351 432//432 425//425 295//295 
s 4
f 378//378 395//395 433//433 434//434 
s 2
f 395//395 375//375 435//435 433//433 
s 1
f 375//375 374//374 436//436 435//435 
s 2
f 374//374 391//391 437//437 436//436 
f 391//391 390//390 438//438 437//437 
s 4
f 390//390 396//396 439//439 438//438 
s 1
f 396//396 379//379 440//440 439//439 
f 379//379 378//378 434//434 440//440 
s 4
f 434//434 433//433 441//441 442//442 
s 8
f 442//442 441//441 426//426 425//425 
s 16
f 433//433 435//435 443//443 441//441 
s 8
f 441//441 443//443 427//427 426//426 
s 32
f 435//435 436//436 444//444 443//443 
s 8
f 443//443 444//444 428//428 427//427 
s 32
f 436//436 437//437 445//445 444//444 
s 8
f 444//444 445//445 429//429 428//428 
s 32
f 437//437 438//438 446//446 445//445 
s 8
f 445//445 446//446 430//430 429//429 
s 16
f 438//438 439//439 447//447 446//446 
s 8
f 446//446 447//447 431//431 430//430 
s 2
f 439//439 440//440 448//448 447//447 
s 8
f 447//447 448//448 432//432 431//431 
s 2
f 440//440 434//434 442//442 448//448 
s 8
f 448//448 442//442 425//425 432//432 
s 4
f 394//394 377//377 449//449 450//450 
s 1
f 377//377 376//376 451//451 449//449 
f 376//376 397//397 452//452 451//451 
s 4
f 397//397 389//389 453//453 452//452 
s 2
f 389//389 388//388 454//454 453//453 
f 388//388 373//373 455//455 454//454 
s 1
f 373//373 372//372 456//456 455//455 
s 2
f 372//372 394//394 450//450 456//456 
s 8
f 450//450 449//449 457//457 458//458 
s 16
f 458//458 457//457 417//417 416//416 
s 2
f 449//449 451//451 459//459 457//457 
s 16
f 457//457 459//459 418//418 417//417 
s 2
f 451//451 452//452 460//460 459//459 
s 16
f 459//459 460//460 419//419 418//418 
s 8
f 452//452 453//453 461//461 460//460 
s 16
f 460//460 461//461 420//420 419//419 
s 32
f 453//453 454//454 462//462 461//461 
s 16
f 461//461 462//462 421//421 420//420 
s 32
f 454//454 455//455 463//463 462//462 
s 16
f 462//462 463//463 422//422 421//421 
s 32
f 455//455 456//456 464//464 463//463 
s 16
f 463//463 464//464 423//423 422//422 
s 64
f 456//456 450//450 458//458 464//464 
s 16
f 464//464 458//458 416//416 423//423 
s 4
f 357//357 364//364 465//465 466//466 
s 1
f 364//364 337//337 467//467 465//465 
f 337//337 336//336 468//468 467//467 
s 2
f 336//336 366//366 469//469 468//468 
s 4
f 366//366 308//308 470//470 469//469 
s 1
f 308//308 307//307 471//471 470//470 
s 2
f 307//307 358//358 472//472 471//471 
f 358//358 357//357 466//466 472//472 
s 16
f 466//466 465//465 473//473 474//474 
s 8
f 474//474 473//473 409//409 408//408 
s 32
f 465//465 467//467 475//475 473//473 
s 8
f 473//473 475//475 410//410 409//409 
s 32
f 467//467 468//468 476//476 475//475 
s 8
f 475//475 476//476 411//411 410//410 
s 16
f 468//468 469//469 477//477 476//476 
s 8
f 476//476 477//477 412//412 411//411 
s 32
f 469//469 470//470 478//478 477//477 
s 8
f 477//477 478//478 413//413 412//412 
s 64
f 470//470 471//471 479//479 478//478 
s 8
f 478//478 479//479 414//414 413//413 
s 64
f 471//471 472//472 480//480 479//479 
s 8
f 479//479 480//480 415//415 414//414 
s 64
f 472//472 466//466 474//474 480//480 
s 8
f 480//480 474//474 408//408 415//415 
s 2
f 367//367 335//335 481//481 482//482 
s 1
f 335//335 338//338 483//483 481//481 
f 338//338 365//365 484//484 483//483 
s 4
f 365//365 356//356 485//485 484//484 
s 2
f 356//356 355//355 486//486 485//485 
f 355//355 306//306 487//487 486//486 
s 1
f 306//306 305//305 488//488 487//487 
s 4
f 305//305 367//367 482//482 488//488 
s 16
f 482//482 481//481 489//489 490//490 
s 8
f 490//490 489//489 401//401 400//400 
s 32
f 481//481 483//483 491//491 489//489 
s 8
f 489//489 491//491 402//402 401//401 
s 32
f 483//483 484//484 492//492 491//491 
s 8
f 491//491 492//492 403//403 402//402 
s 16
f 484//484 485//485 493//493 492//492 
s 8
f 492//492 493//493 404//404 403//403 
s 32
f 485//485 486//486 494//494 493//493 
s 8
f 493//493 494//494 405//405 404//404 
s 32
f 486//486 487//487 495//495 494//494 
s 8
f 494//494 495//495 406//406 405//405 
s 32
f 487//487 488//488 496//496 495//495 
s 8
f 495//495 496//496 407//407 406//406 
s 64
f 488//488 482//482 490//490 496//496 
s 8
f 496//496 490//490 400//400 407//407 
s 1
f 497//497 498//498 499//499 500//500 
s 2
f 501//501 502//502 503//503 504//504 
s 1
f 505//505 506//506 507//507 508//508 
s 4
f 509//509 497//497 500//500 510//510 
s 8
f 509//509 502//502 322//322 363//363 
s 1
f 505//505 498//498 303//303 354//354 
s 2
f 501//501 511//511 512//512 323//323 
s 8
f 511//511 506//506 353//353 512//512 
f 371//371 370//370 503//503 510//510 
s 1
f 383//383 382//382 499//499 508//508 
s 2
f 387//387 386//386 513//513 504//504 
s 8
f 386//386 393//393 507//507 513//513 
s 1
f 514//514 382//382 381//381 424//424 
s 2
f 387//387 370//370 369//369 384//384 
s 1
f 383//383 393//393 392//392 380//380 
s 4
f 371//371 514//514 424//424 368//368 
s 1
f 500//500 499//499 382//382 514//514 
s 2
f 504//504 503//503 370//370 387//387 
s 1
f 508//508 507//507 393//393 383//383 
s 4
f 510//510 500//500 514//514 371//371 
s 8
f 510//510 503//503 502//502 509//509 
s 1
f 508//508 499//499 498//498 505//505 
s 2
f 504//504 513//513 511//511 501//501 
s 8
f 513//513 507//507 506//506 511//511 
s 1
f 304//304 303//303 498//498 497//497 
s 2
f 323//323 322//322 502//502 501//501 
s 1
f 354//354 353//353 506//506 505//505 
s 4
f 363//363 304//304 497//497 509//509 
s 8
f 363//363 322//322 298//298 297//297 
s 1
f 354//354 303//303 301//301 326//326 
s 2
f 323//323 512//512 515//515 324//324 
s 8
f 512//512 353//353 352//352 516//516 515//515 
s off
f 325//325 324//324 515//515 516//516 
f 325//325 516//516 352//352 326//326 
# 466 polygons - 6 triangles

#
# object Cylinder008
#

v  33.9062 39.7876 -0.0123
v  33.9062 42.3266 -0.9364
v  33.9062 42.4895 -0.0123
v  33.9062 41.8574 -1.7491
v  33.9062 41.1386 -2.3522
v  33.9062 40.2568 -2.6732
v  33.9062 39.3185 -2.6732
v  33.9062 38.4367 -2.3522
v  33.9062 37.7179 -1.7491
v  33.9062 37.2487 -0.9364
v  33.9062 37.0858 -0.0123
v  33.9062 37.2487 0.9118
v  33.9062 37.7179 1.7244
v  33.9062 38.4367 2.3276
v  33.9062 39.3185 2.6485
v  33.9062 40.2568 2.6485
v  33.9062 41.1386 2.3276
v  33.9062 41.8574 1.7244
v  33.9062 42.3266 0.9118
v  33.9062 44.8655 -1.8605
v  33.9062 45.1914 -0.0123
v  33.9062 43.9271 -3.4858
v  33.9062 42.4895 -4.6921
v  33.9062 40.7260 -5.3340
v  33.9062 38.8493 -5.3340
v  33.9062 37.0858 -4.6921
v  33.9062 35.6481 -3.4858
v  33.9062 34.7098 -1.8605
v  33.9062 34.3839 -0.0123
v  33.9062 34.7098 1.8359
v  33.9062 35.6481 3.4611
v  33.9062 37.0858 4.6674
v  33.9062 38.8493 5.3093
v  33.9062 40.7260 5.3093
v  33.9062 42.4895 4.6674
v  33.9062 43.9271 3.4611
v  33.9062 44.8655 1.8359
v  33.9062 47.4044 -2.7846
v  33.9062 47.8932 -0.0123
v  33.9062 45.9969 -5.2225
v  33.9062 43.8404 -7.0320
v  33.9062 41.1952 -7.9948
v  33.9062 38.3801 -7.9948
v  33.9062 35.7348 -7.0320
v  33.9062 33.5784 -5.2225
v  33.9062 32.1708 -2.7846
v  33.9062 31.6820 -0.0123
v  33.9062 32.1708 2.7599
v  33.9062 33.5784 5.1979
v  33.9062 35.7348 7.0073
v  33.9062 38.3801 7.9701
v  33.9062 41.1952 7.9701
v  33.9062 43.8404 7.0073
v  33.9062 45.9969 5.1979
v  33.9062 47.4044 2.7600
v  33.9062 48.2516 -3.0930
v  33.9062 48.7948 -0.0123
v  33.9062 46.6875 -5.8020
v  33.9062 44.2912 -7.8128
v  33.9062 41.3517 -8.8827
v  33.9062 38.2236 -8.8827
v  33.9062 35.2841 -7.8128
v  33.9062 32.8877 -5.8020
v  33.9062 31.3237 -3.0930
v  33.9062 30.7805 -0.0123
v  33.9062 31.3237 3.0683
v  33.9062 32.8877 5.7774
v  33.9062 35.2840 7.7881
v  33.9062 38.2236 8.8580
v  33.9062 41.3517 8.8580
v  33.9062 44.2912 7.7881
v  33.9062 46.6875 5.7774
v  33.9062 48.2516 3.0683
v  32.1058 50.5951 -0.0123
v  32.1058 49.9434 -3.7087
v  13.9322 49.9433 -3.7087
v  13.9322 50.5951 -0.0123
v  32.1058 48.0667 -6.9593
v  13.9322 48.0667 -6.9593
v  32.1058 45.1914 -9.3719
v  13.9322 45.1914 -9.3719
v  32.1058 41.6643 -10.6556
v  13.9322 41.6643 -10.6556
v  32.1058 37.9109 -10.6556
v  13.9322 37.9109 -10.6556
v  32.1058 34.3839 -9.3719
v  13.9322 34.3839 -9.3719
v  32.1058 31.5086 -6.9593
v  13.9322 31.5086 -6.9593
v  32.1058 29.6319 -3.7087
v  13.9322 29.6319 -3.7087
v  32.1058 28.9801 -0.0123
v  13.9322 28.9801 -0.0123
v  32.1058 29.6319 3.6840
v  13.9322 29.6319 3.6840
v  32.1058 31.5086 6.9346
v  13.9322 31.5086 6.9346
v  32.1058 34.3839 9.3472
v  13.9322 34.3839 9.3472
v  32.1058 37.9109 10.6310
v  13.9322 37.9109 10.6310
v  32.1058 41.6643 10.6310
v  13.9322 41.6643 10.6310
v  32.1058 45.1914 9.3472
v  13.9322 45.1914 9.3472
v  32.1058 48.0666 6.9346
v  13.9322 48.0666 6.9346
v  32.1058 49.9433 3.6841
v  13.9322 49.9433 3.6841
v  4.5963 49.9433 -3.7087
v  4.5963 50.5951 -0.0123
v  4.5963 48.0666 -6.9593
v  4.5963 45.1914 -9.3719
v  4.5963 41.6643 -10.6556
v  4.5963 37.9109 -10.6556
v  4.5963 34.3839 -9.3719
v  4.5963 31.5086 -6.9593
v  4.5963 29.6319 -3.7087
v  4.5963 28.9801 -0.0123
v  4.5963 29.6319 3.6840
v  4.5963 31.5086 6.9346
v  4.5963 34.3839 9.3472
v  4.5963 37.9109 10.6310
v  4.5963 41.6643 10.6310
v  4.5963 45.1914 9.3472
v  4.5963 48.0666 6.9346
v  4.5963 49.9433 3.6841
v  -4.7395 49.9433 -3.7087
v  -4.7395 50.5951 -0.0123
v  -4.7395 48.0666 -6.9593
v  -4.7395 45.1914 -9.3719
v  -4.7395 41.6643 -10.6556
v  -4.7395 37.9109 -10.6556
v  -4.7395 34.3839 -9.3719
v  -4.7395 31.5086 -6.9593
v  -4.7395 29.6319 -3.7087
v  -4.7395 28.9801 -0.0123
v  -4.7395 29.6319 3.6840
v  -4.7395 31.5086 6.9346
v  -4.7395 34.3839 9.3472
v  -4.7395 37.9109 10.6310
v  -4.7395 41.6643 10.6310
v  -4.7395 45.1914 9.3472
v  -4.7395 48.0666 6.9346
v  -4.7395 49.9433 3.6841
v  -14.0753 49.9433 -3.7087
v  -14.0753 50.5951 -0.0123
v  -14.0753 48.0666 -6.9593
v  -14.0753 45.1914 -9.3719
v  -14.0753 41.6643 -10.6556
v  -14.0753 37.9109 -10.6556
v  -14.0753 34.3839 -9.3719
v  -14.0753 31.5086 -6.9593
v  -14.0753 29.6319 -3.7087
v  -14.0753 28.9801 -0.0123
v  -14.0753 29.6319 3.6840
v  -14.0753 31.5086 6.9346
v  -14.0753 34.3839 9.3472
v  -14.0753 37.9109 10.6310
v  -14.0753 41.6643 10.6310
v  -14.0753 45.1914 9.3472
v  -14.0753 48.0666 6.9346
v  -14.0753 49.9433 3.6841
v  -26.0621 49.9433 -3.7087
v  -26.0621 50.5951 -0.0123
v  -26.0621 48.0666 -6.9593
v  -26.0621 45.1914 -9.3719
v  -26.0621 41.6643 -10.6556
v  -26.0621 37.9109 -10.6556
v  -26.0621 34.3839 -9.3719
v  -26.0621 31.5086 -6.9593
v  -26.0621 29.6319 -3.7087
v  -26.0621 28.9801 -0.0123
v  -26.0621 29.6319 3.6840
v  -26.0621 31.5086 6.9346
v  -26.0621 34.3839 9.3472
v  -26.0621 37.9109 10.6310
v  -26.0621 41.6643 10.6310
v  -26.0621 45.1914 9.3472
v  -26.0621 48.0666 6.9346
v  -26.0621 49.9433 3.6841
v  -27.0403 50.1291 -0.0123
v  -27.0403 49.5054 -3.5493
v  -28.8541 47.4044 -2.7846
v  -28.8541 47.8932 -0.0123
v  -27.0403 47.7096 -6.6597
v  -28.8541 45.9969 -5.2225
v  -27.0403 44.9584 -8.9683
v  -28.8541 43.8404 -7.0320
v  -27.0403 41.5834 -10.1967
v  -28.8541 41.1952 -7.9948
v  -27.0403 37.9919 -10.1967
v  -28.8541 38.3801 -7.9948
v  -27.0403 34.6169 -8.9683
v  -28.8541 35.7348 -7.0320
v  -27.0403 31.8656 -6.6597
v  -28.8541 33.5784 -5.2225
v  -27.0403 30.0698 -3.5493
v  -28.8541 32.1708 -2.7846
v  -27.0403 29.4462 -0.0123
v  -28.8541 31.6820 -0.0123
v  -27.0403 30.0698 3.5246
v  -28.8541 32.1708 2.7599
v  -27.0403 31.8656 6.6350
v  -28.8541 33.5784 5.1979
v  -27.0403 34.6169 8.9436
v  -28.8541 35.7348 7.0073
v  -27.0403 37.9919 10.1720
v  -28.8541 38.3801 7.9701
v  -27.0403 41.5834 10.1720
v  -28.8541 41.1952 7.9701
v  -27.0403 44.9583 8.9436
v  -28.8541 43.8404 7.0073
v  -27.0403 47.7096 6.6350
v  -28.8541 45.9969 5.1979
v  -27.0403 49.5054 3.5247
v  -28.8541 47.4044 2.7600
v  -32.5059 47.8932 -0.0123
v  -32.5059 47.4044 -2.7846
v  -32.5059 44.4820 -1.7209
v  -32.5059 44.7832 -0.0123
v  -32.5059 45.9969 -5.2225
v  -32.5059 43.6145 -3.2234
v  -32.5059 43.8404 -7.0320
v  -32.5059 42.2854 -4.3386
v  -32.5059 41.1952 -7.9948
v  -32.5059 40.6551 -4.9320
v  -32.5059 38.3801 -7.9948
v  -32.5059 38.9202 -4.9320
v  -32.5059 35.7348 -7.0320
v  -32.5059 37.2898 -4.3386
v  -32.5059 33.5784 -5.2225
v  -32.5059 35.9608 -3.2234
v  -32.5059 32.1708 -2.7846
v  -32.5059 35.0933 -1.7209
v  -32.5059 31.6820 -0.0123
v  -32.5059 34.7920 -0.0123
v  -32.5059 32.1708 2.7599
v  -32.5059 35.0933 1.6963
v  -32.5059 33.5784 5.1979
v  -32.5059 35.9608 3.1988
v  -32.5059 35.7348 7.0073
v  -32.5059 37.2898 4.3140
v  -32.5059 38.3801 7.9701
v  -32.5059 38.9202 4.9074
v  -32.5059 41.1952 7.9701
v  -32.5059 40.6551 4.9074
v  -32.5059 43.8404 7.0073
v  -32.5059 42.2854 4.3140
v  -32.5059 45.9969 5.1979
v  -32.5059 43.6145 3.1988
v  -32.5059 47.4044 2.7600
v  -32.5059 44.4820 1.6963
v  -32.5059 41.6532 -0.0123
v  -32.5059 41.5407 -0.6504
v  -46.3535 40.1685 -0.1510
v  -46.3535 40.1929 -0.0123
v  -32.5059 41.2167 -1.2115
v  -46.3535 40.0981 -0.2729
v  -32.5059 40.7204 -1.6279
v  -46.3535 39.9903 -0.3633
v  -32.5059 40.1116 -1.8495
v  -46.3535 39.8580 -0.4115
v  -32.5059 39.4637 -1.8495
v  -46.3535 39.7172 -0.4115
v  -32.5059 38.8549 -1.6279
v  -46.3528 39.5850 -0.3633
v  -32.5059 38.3585 -1.2115
v  -46.3528 39.4771 -0.2729
v  -32.5059 38.0346 -0.6504
v  -46.3528 39.4068 -0.1510
v  -32.5059 37.9221 -0.0123
v  -46.3528 39.3823 -0.0123
v  -32.5059 38.0346 0.6257
v  -46.3528 39.4068 0.1263
v  -32.5059 38.3585 1.1868
v  -46.3528 39.4771 0.2482
v  -32.5059 38.8549 1.6033
v  -46.3528 39.5850 0.3387
v  -32.5059 39.4637 1.8249
v  -46.3528 39.7172 0.3868
v  -32.5059 40.1116 1.8249
v  -46.3528 39.8580 0.3868
v  -32.5059 40.7204 1.6033
v  -46.3535 39.9903 0.3387
v  -32.5059 41.2167 1.1868
v  -46.3535 40.0981 0.2482
v  -32.5059 41.5407 0.6257
v  -46.3535 40.1685 0.1263
v  -46.3509 39.7876 -0.0123
v  33.4561 49.5204 -3.5548
v  33.4561 50.1450 -0.0123
v  33.4561 47.7219 -6.6699
v  33.4561 44.9663 -8.9821
v  33.4561 41.5862 -10.2124
v  33.4561 37.9891 -10.2124
v  33.4561 34.6089 -8.9821
v  33.4561 31.8534 -6.6699
v  33.4561 30.0549 -3.5548
v  33.4561 29.4302 -0.0123
v  33.4561 30.0549 3.5301
v  33.4561 31.8534 6.6453
v  33.4561 34.6089 8.9574
v  33.4561 37.9891 10.1877
v  33.4561 41.5862 10.1877
v  33.4561 44.9663 8.9574
v  33.4561 47.7219 6.6453
v  33.4561 49.5204 3.5301
v  -30.8674 47.4044 -2.7846
v  -30.8674 47.8932 -0.0123
v  -30.8674 45.9969 -5.2225
v  -30.8674 43.8404 -7.0320
v  -30.8674 41.1952 -7.9948
v  -30.8674 38.3801 -7.9948
v  -30.8674 35.7348 -7.0320
v  -30.8674 33.5784 -5.2225
v  -30.8674 32.1708 -2.7846
v  -30.8674 31.6820 -0.0123
v  -30.8674 32.1708 2.7599
v  -30.8674 33.5784 5.1979
v  -30.8674 35.7348 7.0073
v  -30.8674 38.3801 7.9701
v  -30.8674 41.1952 7.9701
v  -30.8674 43.8404 7.0073
v  -30.8674 45.9969 5.1979
v  -30.8674 47.4044 2.7600
# 326 vertices

vn 1.0000 0.0000 -0.0000
vn 1.0000 -0.0000 0.0000
vn 1.0000 -0.0000 -0.0000
vn 1.0000 0.0000 0.0000
vn 0.9841 0.1667 -0.0607
vn 0.9841 0.1774 0.0000
vn 0.9841 0.1359 -0.1140
vn 0.9841 0.0887 -0.1536
vn 0.9841 0.0308 -0.1747
vn 0.9841 -0.0308 -0.1747
vn 0.9841 -0.0887 -0.1536
vn 0.9841 -0.1359 -0.1140
vn 0.9841 -0.1667 -0.0607
vn 0.9841 -0.1774 -0.0000
vn 0.9841 -0.1667 0.0607
vn 0.9841 -0.1359 0.1140
vn 0.9841 -0.0887 0.1536
vn 0.9841 -0.0308 0.1747
vn 0.9841 0.0308 0.1747
vn 0.9841 0.0887 0.1536
vn 0.9841 0.1359 0.1140
vn 0.9841 0.1667 0.0607
vn 0.1575 0.9875 0.0000
vn 0.1575 0.9280 -0.3378
vn -0.0000 0.9397 -0.3420
vn -0.0000 1.0000 0.0000
vn 0.1575 0.7565 -0.6348
vn -0.0000 0.7660 -0.6428
vn 0.1575 0.4938 -0.8552
vn -0.0000 0.5000 -0.8660
vn 0.1575 0.1715 -0.9725
vn -0.0000 0.1736 -0.9848
vn 0.1575 -0.1715 -0.9725
vn -0.0000 -0.1736 -0.9848
vn 0.1575 -0.4938 -0.8552
vn -0.0000 -0.5000 -0.8660
vn 0.1575 -0.7565 -0.6348
vn -0.0000 -0.7660 -0.6428
vn 0.1575 -0.9280 -0.3378
vn -0.0000 -0.9397 -0.3420
vn 0.1575 -0.9875 -0.0000
vn 0.0000 -1.0000 0.0000
vn 0.1575 -0.9280 0.3378
vn 0.0000 -0.9397 0.3420
vn 0.1575 -0.7565 0.6348
vn 0.0000 -0.7660 0.6428
vn 0.1574 -0.4938 0.8552
vn -0.0000 -0.5000 0.8660
vn 0.1575 -0.1715 0.9725
vn 0.0000 -0.1736 0.9848
vn 0.1575 0.1715 0.9725
vn -0.0000 0.1736 0.9848
vn 0.1575 0.4938 0.8552
vn -0.0000 0.5000 0.8660
vn 0.1575 0.7565 0.6348
vn -0.0000 0.7660 0.6428
vn 0.1574 0.9280 0.3378
vn -0.0000 0.9397 0.3420
vn 0.0000 -0.1736 -0.9848
vn 0.0000 -0.5000 -0.8660
vn 0.0000 -0.7660 -0.6428
vn 0.0000 -0.9397 -0.3420
vn 0.0000 -1.0000 -0.0000
vn 0.0000 -0.5000 0.8660
vn 0.0000 0.9397 -0.3420
vn 0.0000 1.0000 0.0000
vn 0.0000 0.7660 -0.6428
vn 0.0000 0.1736 -0.9848
vn 0.0000 0.1736 0.9848
vn 0.0000 0.5000 0.8660
vn 0.0000 0.7660 0.6428
vn 0.0000 0.9397 0.3420
vn -0.2154 0.9176 -0.3340
vn -0.2154 0.9765 0.0000
vn -0.2154 0.7481 -0.6277
vn -0.2154 0.4883 -0.8457
vn -0.2154 0.1696 -0.9617
vn -0.2154 -0.1696 -0.9617
vn -0.2154 -0.4883 -0.8457
vn -0.2154 -0.7481 -0.6277
vn -0.2154 -0.9176 -0.3340
vn -0.2154 -0.9765 -0.0000
vn -0.2154 -0.9176 0.3340
vn -0.2154 -0.7481 0.6277
vn -0.2154 -0.4883 0.8457
vn -0.2154 -0.1696 0.9617
vn -0.2154 0.1696 0.9617
vn -0.2154 0.4883 0.8457
vn -0.2154 0.7481 0.6277
vn -0.2154 0.9176 0.3340
vn -0.6070 0.7947 0.0000
vn -0.6070 0.7468 -0.2718
vn -0.4497 0.8393 -0.3055
vn -0.4497 0.8932 -0.0000
vn -0.6070 0.6088 -0.5108
vn -0.4497 0.6842 -0.5741
vn -0.6070 0.3974 -0.6883
vn -0.4497 0.4466 -0.7735
vn -0.6070 0.1380 -0.7827
vn -0.4497 0.1551 -0.8796
vn -0.6070 -0.1380 -0.7827
vn -0.4497 -0.1551 -0.8796
vn -0.6070 -0.3974 -0.6883
vn -0.4497 -0.4466 -0.7735
vn -0.6070 -0.6088 -0.5108
vn -0.4497 -0.6842 -0.5741
vn -0.6070 -0.7468 -0.2718
vn -0.4498 -0.8393 -0.3055
vn -0.6070 -0.7947 -0.0000
vn -0.4497 -0.8932 -0.0000
vn -0.6070 -0.7468 0.2718
vn -0.4497 -0.8393 0.3055
vn -0.6070 -0.6088 0.5108
vn -0.4497 -0.6842 0.5741
vn -0.6070 -0.3974 0.6883
vn -0.4497 -0.4466 0.7735
vn -0.6070 -0.1380 0.7827
vn -0.4497 -0.1551 0.8796
vn -0.6070 0.1380 0.7827
vn -0.4497 0.1551 0.8796
vn -0.6070 0.3974 0.6883
vn -0.4497 0.4466 0.7735
vn -0.6070 0.6088 0.5108
vn -0.4498 0.6842 0.5741
vn -0.6070 0.7468 0.2718
vn -0.4497 0.8393 0.3055
vn -0.6700 0.7423 0.0000
vn -0.6700 0.6976 -0.2539
vn -1.0000 0.0000 -0.0000
vn -1.0000 0.0000 0.0000
vn -0.6700 0.5687 -0.4772
vn -0.6701 0.3712 -0.6428
vn -0.6701 0.1289 -0.7310
vn -0.6700 -0.1289 -0.7311
vn -1.0000 -0.0000 -0.0000
vn -0.6701 -0.3711 -0.6429
vn -0.6701 -0.5686 -0.4771
vn -0.6700 -0.6976 -0.2539
vn -0.6700 -0.7423 -0.0000
vn -0.6700 -0.6976 0.2539
vn -1.0000 -0.0000 0.0000
vn -0.6700 -0.5687 0.4772
vn -0.6700 -0.3712 0.6429
vn -0.6700 -0.1289 0.7311
vn -0.6700 0.1289 0.7311
vn -0.6700 0.3712 0.6429
vn -0.6700 0.5687 0.4772
vn -0.6700 0.6976 0.2539
vn -0.7816 0.6238 0.0000
vn -0.7816 0.5861 -0.2133
vn -0.7100 0.6618 -0.2409
vn -0.7100 0.7042 0.0000
vn -0.7816 0.4778 -0.4009
vn -0.7100 0.5395 -0.4527
vn -0.7816 0.3119 -0.5402
vn -0.7100 0.3521 -0.6099
vn -0.7816 0.1083 -0.6143
vn -0.7100 0.1223 -0.6935
vn -0.7816 -0.1083 -0.6143
vn -0.7105 -0.1237 -0.6928
vn -0.7816 -0.3119 -0.5402
vn -0.7090 -0.3539 -0.6100
vn -0.7816 -0.4778 -0.4009
vn -0.7095 -0.5399 -0.4530
vn -0.7816 -0.5861 -0.2133
vn -0.7095 -0.6622 -0.2410
vn -0.7816 -0.6238 -0.0000
vn -0.7095 -0.7047 0.0000
vn -0.7816 -0.5861 0.2133
vn -0.7095 -0.6622 0.2410
vn -0.7816 -0.4778 0.4009
vn -0.7095 -0.5399 0.4530
vn -0.7816 -0.3119 0.5402
vn -0.7095 -0.3524 0.6103
vn -0.7816 -0.1083 0.6143
vn -0.7095 -0.1224 0.6940
vn -0.7816 0.1083 0.6143
vn -0.7090 0.1210 0.6948
vn -0.7816 0.3119 0.5402
vn -0.7105 0.3506 0.6102
vn -0.7816 0.4778 0.4009
vn -0.7100 0.5395 0.4527
vn -0.7816 0.5861 0.2133
vn -0.7100 0.6618 0.2409
vn -1.0000 -0.0010 0.0004
vn 0.6832 0.6862 -0.2498
vn 0.6832 0.7303 0.0000
vn 0.6832 0.5594 -0.4694
vn 0.6832 0.3651 -0.6324
vn 0.6832 0.1268 -0.7192
vn 0.6832 -0.1268 -0.7192
vn 0.6832 -0.3651 -0.6324
vn 0.6832 -0.5594 -0.4694
vn 0.6832 -0.6862 -0.2498
vn 0.6832 -0.7303 -0.0000
vn 0.6832 -0.6862 0.2498
vn 0.6832 -0.5594 0.4694
vn 0.6832 -0.3651 0.6324
vn 0.6832 -0.1268 0.7192
vn 0.6832 0.1268 0.7192
vn 0.6832 0.3651 0.6324
vn 0.6832 0.5594 0.4694
vn 0.6832 0.6862 0.2498
# 203 vertex normals

vt 18.0092 17.7356 0.0000
vt 22.2399 16.1957 0.0000
vt 22.5115 17.7356 0.0000
vt 21.4581 14.8416 0.0000
vt 20.2603 13.8365 0.0000
vt 18.7910 13.3017 0.0000
vt 17.2274 13.3017 0.0000
vt 15.7580 13.8365 0.0000
vt 14.5602 14.8416 0.0000
vt 13.7784 16.1957 0.0000
vt 13.5069 17.7356 0.0000
vt 13.7784 19.2755 0.0000
vt 14.5602 20.6296 0.0000
vt 15.7580 21.6347 0.0000
vt 17.2274 22.1695 0.0000
vt 18.7910 22.1695 0.0000
vt 20.2603 21.6347 0.0000
vt 21.4581 20.6296 0.0000
vt 22.2399 19.2755 0.0000
vt 26.4707 14.6558 0.0000
vt 27.0138 17.7356 0.0000
vt 24.9071 11.9475 0.0000
vt 22.5115 9.9374 0.0000
vt 19.5728 8.8678 0.0000
vt 16.4455 8.8678 0.0000
vt 13.5069 9.9374 0.0000
vt 11.1113 11.9475 0.0000
vt 9.5476 14.6558 0.0000
vt 9.0046 17.7356 0.0000
vt 9.5476 20.8153 0.0000
vt 11.1113 23.5236 0.0000
vt 13.5069 25.5338 0.0000
vt 16.4455 26.6034 0.0000
vt 19.5728 26.6034 0.0000
vt 22.5115 25.5338 0.0000
vt 24.9071 23.5236 0.0000
vt 26.4707 20.8153 0.0000
vt 30.7015 13.1160 0.0000
vt 31.5161 17.7356 0.0000
vt 28.3560 9.0535 0.0000
vt 24.7626 6.0383 0.0000
vt 20.3546 4.4339 0.0000
vt 15.6637 4.4339 0.0000
vt 11.2557 6.0383 0.0000
vt 7.6623 9.0535 0.0000
vt 5.3169 13.1159 0.0000
vt 4.5023 17.7356 0.0000
vt 5.3169 22.3552 0.0000
vt 7.6623 26.4176 0.0000
vt 11.2557 29.4329 0.0000
vt 15.6637 31.0373 0.0000
vt 20.3546 31.0373 0.0000
vt 24.7626 29.4329 0.0000
vt 28.3560 26.4176 0.0000
vt 30.7015 22.3552 0.0000
vt 32.1132 12.6021 0.0000
vt 33.0184 17.7356 0.0000
vt 29.5069 8.0879 0.0000
vt 25.5138 4.7372 0.0000
vt 20.6155 2.9544 0.0000
vt 15.4029 2.9544 0.0000
vt 10.5046 4.7372 0.0000
vt 6.5115 8.0879 0.0000
vt 3.9052 12.6021 0.0000
vt 3.0000 17.7356 0.0000
vt 3.9052 22.8690 0.0000
vt 6.5115 27.3833 0.0000
vt 10.5046 30.7339 0.0000
vt 15.4029 32.5167 0.0000
vt 20.6155 32.5167 0.0000
vt 25.5138 30.7339 0.0000
vt 29.5069 27.3833 0.0000
vt 32.1132 22.8690 0.0000
vt 84.8662 1.9595 1.0000
vt 91.1526 1.9595 1.0000
vt 91.1526 15.5569 1.0000
vt 84.8662 15.5569 1.0000
vt 97.4390 1.9595 1.0000
vt 97.4390 15.5569 1.0000
vt 103.7254 1.9595 1.0000
vt 103.7254 15.5569 1.0000
vt 110.0118 1.9595 1.0000
vt 110.0118 15.5569 1.0000
vt -3.1432 1.9595 1.0000
vt 3.1432 1.9595 1.0000
vt 3.1432 15.5569 1.0000
vt -3.1432 15.5569 1.0000
vt 9.4296 1.9595 1.0000
vt 9.4296 15.5569 1.0000
vt 15.7160 1.9595 1.0000
vt 15.7160 15.5569 1.0000
vt 22.0024 1.9595 1.0000
vt 22.0024 15.5569 1.0000
vt 28.2887 1.9595 1.0000
vt 28.2887 15.5569 1.0000
vt 34.5751 1.9595 1.0000
vt 34.5751 15.5569 1.0000
vt 40.8615 1.9595 1.0000
vt 40.8615 15.5569 1.0000
vt 47.1479 1.9595 1.0000
vt 47.1479 15.5569 1.0000
vt 53.4343 1.9595 1.0000
vt 53.4343 15.5569 1.0000
vt 59.7207 1.9595 1.0000
vt 59.7207 15.5569 1.0000
vt 66.0071 1.9595 1.0000
vt 66.0071 15.5569 1.0000
vt 72.2935 1.9595 1.0000
vt 72.2935 15.5569 1.0000
vt 78.5798 1.9595 1.0000
vt 78.5798 15.5569 1.0000
vt 91.1526 31.1137 1.0000
vt 84.8662 31.1137 1.0000
vt 97.4390 31.1137 1.0000
vt 103.7254 31.1137 1.0000
vt 110.0118 31.1137 1.0000
vt 3.1432 31.1137 1.0000
vt -3.1432 31.1137 1.0000
vt 9.4296 31.1137 1.0000
vt 15.7160 31.1137 1.0000
vt 22.0024 31.1137 1.0000
vt 28.2887 31.1137 1.0000
vt 34.5751 31.1137 1.0000
vt 40.8615 31.1137 1.0000
vt 47.1479 31.1137 1.0000
vt 53.4343 31.1137 1.0000
vt 59.7207 31.1137 1.0000
vt 66.0071 31.1137 1.0000
vt 72.2935 31.1137 1.0000
vt 78.5798 31.1137 1.0000
vt 91.1526 46.6706 1.0000
vt 84.8662 46.6706 1.0000
vt 97.4390 46.6706 1.0000
vt 103.7254 46.6706 1.0000
vt 110.0118 46.6706 1.0000
vt 3.1432 46.6706 1.0000
vt -3.1432 46.6706 1.0000
vt 9.4296 46.6706 1.0000
vt 15.7160 46.6706 1.0000
vt 22.0024 46.6706 1.0000
vt 28.2887 46.6706 1.0000
vt 34.5751 46.6706 1.0000
vt 40.8615 46.6706 1.0000
vt 47.1479 46.6706 1.0000
vt 53.4343 46.6706 1.0000
vt 59.7207 46.6706 1.0000
vt 66.0071 46.6706 1.0000
vt 72.2935 46.6706 1.0000
vt 78.5798 46.6706 1.0000
vt 91.1526 62.2275 1.0000
vt 84.8662 62.2275 1.0000
vt 97.4390 62.2275 1.0000
vt 103.7254 62.2275 1.0000
vt 110.0118 62.2275 1.0000
vt 3.1432 62.2275 1.0000
vt -3.1432 62.2275 1.0000
vt 9.4296 62.2275 1.0000
vt 15.7160 62.2275 1.0000
vt 22.0024 62.2275 1.0000
vt 28.2887 62.2275 1.0000
vt 34.5751 62.2275 1.0000
vt 40.8615 62.2275 1.0000
vt 47.1479 62.2275 1.0000
vt 53.4343 62.2275 1.0000
vt 59.7207 62.2275 1.0000
vt 66.0071 62.2275 1.0000
vt 72.2935 62.2275 1.0000
vt 78.5798 62.2275 1.0000
vt 91.1526 76.7843 1.0000
vt 84.8662 76.7843 1.0000
vt 97.4390 76.7843 1.0000
vt 103.7254 76.7843 1.0000
vt 110.0118 76.7843 1.0000
vt 3.1432 76.7843 1.0000
vt -3.1432 76.7843 1.0000
vt 9.4296 76.7843 1.0000
vt 15.7160 76.7843 1.0000
vt 22.0024 76.7843 1.0000
vt 28.2887 76.7843 1.0000
vt 34.5751 76.7843 1.0000
vt 40.8615 76.7843 1.0000
vt 47.1479 76.7843 1.0000
vt 53.4343 76.7843 1.0000
vt 59.7207 76.7843 1.0000
vt 66.0071 76.7843 1.0000
vt 72.2935 76.7843 1.0000
vt 78.5798 76.7843 1.0000
vt 35.2418 17.7356 0.0000
vt 34.2025 23.6295 0.0000
vt 31.2101 28.8125 0.0000
vt 26.6255 32.6594 0.0000
vt 21.0016 34.7064 0.0000
vt 15.0168 34.7064 0.0000
vt 9.3929 32.6594 0.0000
vt 4.8082 28.8125 0.0000
vt 1.8158 23.6295 0.0000
vt 0.7766 17.7356 0.0000
vt 1.8158 11.8417 0.0000
vt 5.3169 13.1160 0.0000
vt 4.8082 6.6587 0.0000
vt 9.3929 2.8117 0.0000
vt 15.0168 0.7648 0.0000
vt 21.0016 0.7648 0.0000
vt 26.6255 2.8117 0.0000
vt 31.2101 6.6587 0.0000
vt 34.2025 11.8417 0.0000
vt 30.7015 13.1159 0.0000
vt 28.5929 21.5877 0.0000
vt 29.2721 17.7356 0.0000
vt 26.6371 24.9753 0.0000
vt 23.6407 27.4896 0.0000
vt 19.9650 28.8274 0.0000
vt 16.0534 28.8274 0.0000
vt 12.3777 27.4896 0.0000
vt 9.3812 24.9753 0.0000
vt 7.4255 21.5877 0.0000
vt 6.7462 17.7356 0.0000
vt 7.4255 13.8834 0.0000
vt 9.3812 10.4959 0.0000
vt 12.3777 7.9816 0.0000
vt 16.0534 6.6437 0.0000
vt 19.9650 6.6437 0.0000
vt 23.6407 7.9816 0.0000
vt 26.6371 10.4959 0.0000
vt 28.5929 13.8834 0.0000
vt 90.6290 -5.8596 1.0000
vt 90.8908 -1.9501 1.0000
vt 85.1280 -1.9501 1.0000
vt 85.3898 -5.8596 1.0000
vt 96.9154 -5.8596 1.0000
vt 97.1772 -1.9501 1.0000
vt 91.4144 -1.9501 1.0000
vt 91.6762 -5.8596 1.0000
vt 103.2018 -5.8597 1.0000
vt 103.4636 -1.9501 1.0000
vt 97.7008 -1.9501 1.0000
vt 97.9626 -5.8597 1.0000
vt 109.4882 -5.8596 1.0000
vt 109.7500 -1.9501 1.0000
vt 103.9872 -1.9501 1.0000
vt 104.2490 -5.8596 1.0000
vt 2.6196 -5.8597 1.0000
vt 2.8814 -1.9501 1.0000
vt -2.8814 -1.9501 1.0000
vt -2.6196 -5.8597 1.0000
vt 8.9060 -5.8597 1.0000
vt 9.1678 -1.9501 1.0000
vt 3.4050 -1.9501 1.0000
vt 3.6668 -5.8597 1.0000
vt 15.1924 -5.8597 1.0000
vt 15.4542 -1.9501 1.0000
vt 9.6914 -1.9501 1.0000
vt 9.9532 -5.8597 1.0000
vt 21.4788 -5.8596 1.0000
vt 21.7406 -1.9501 1.0000
vt 15.9778 -1.9501 1.0000
vt 16.2396 -5.8597 1.0000
vt 27.7652 -5.8597 1.0000
vt 28.0269 -1.9501 1.0000
vt 22.2642 -1.9501 1.0000
vt 22.5260 -5.8597 1.0000
vt 34.0515 -5.8597 1.0000
vt 34.3133 -1.9501 1.0000
vt 28.5505 -1.9501 1.0000
vt 28.8124 -5.8597 1.0000
vt 40.3379 -5.8596 1.0000
vt 40.5997 -1.9501 1.0000
vt 34.8369 -1.9501 1.0000
vt 35.0987 -5.8596 1.0000
vt 46.6243 -5.8597 1.0000
vt 46.8861 -1.9501 1.0000
vt 41.1233 -1.9501 1.0000
vt 41.3851 -5.8597 1.0000
vt 52.9107 -5.8597 1.0000
vt 53.1725 -1.9501 1.0000
vt 47.4097 -1.9501 1.0000
vt 47.6715 -5.8597 1.0000
vt 59.1971 -5.8596 1.0000
vt 59.4589 -1.9501 1.0000
vt 53.6961 -1.9501 1.0000
vt 53.9579 -5.8597 1.0000
vt 65.4835 -5.8597 1.0000
vt 65.7453 -1.9501 1.0000
vt 59.9825 -1.9501 1.0000
vt 60.2443 -5.8597 1.0000
vt 71.7699 -5.8596 1.0000
vt 72.0317 -1.9501 1.0000
vt 66.2689 -1.9501 1.0000
vt 66.5307 -5.8596 1.0000
vt 78.0563 -5.8596 1.0000
vt 78.3180 -1.9501 1.0000
vt 72.5553 -1.9501 1.0000
vt 72.8171 -5.8596 1.0000
vt 84.3426 -5.8597 1.0000
vt 84.6044 -1.9501 1.0000
vt 78.8416 -1.9501 1.0000
vt 79.1034 -5.8597 1.0000
vt 35.8996 24.0656 0.0000
vt 36.9857 17.9061 0.0000
vt 32.6556 29.8028 0.0000
vt 35.7829 24.3862 0.0000
vt 27.6451 34.0844 0.0000
vt 32.4364 30.0641 0.0000
vt 21.4724 36.3942 0.0000
vt 27.3497 34.2550 0.0000
vt 14.8819 36.4534 0.0000
vt 21.1364 36.4534 0.0000
vt 8.6686 34.2550 0.0000
vt 14.5460 36.3942 0.0000
vt 3.5820 30.0641 0.0000
vt 8.3732 34.0844 0.0000
vt 0.2354 24.3862 0.0000
vt 3.3627 29.8028 0.0000
vt -0.9673 17.9061 0.0000
vt 0.1188 24.0656 0.0000
vt 0.1188 11.4055 0.0000
vt -0.9673 17.5650 0.0000
vt 3.3627 5.6684 0.0000
vt 0.2354 11.0850 0.0000
vt 8.3732 1.3867 0.0000
vt 3.5820 5.4071 0.0000
vt 14.5460 -0.9230 0.0000
vt 8.6686 1.2162 0.0000
vt 21.1364 -0.9822 0.0000
vt 14.8819 -0.9822 0.0000
vt 27.3497 1.2162 0.0000
vt 21.4724 -0.9230 0.0000
vt 32.4364 5.4071 0.0000
vt 27.6451 1.3867 0.0000
vt 35.7829 11.0849 0.0000
vt 32.6556 5.6684 0.0000
vt 36.9857 17.5650 0.0000
vt 35.8996 11.4055 0.0000
# 333 texture coords

o Cylinder008
g Cylinder008
usemtl wire_135006006
s 1
f 517/60/517 518/61/517 519/62/517 
f 517/60/517 520/63/517 518/61/517 
f 517/60/517 521/64/517 520/63/517 
f 517/60/517 522/65/517 521/64/517 
f 517/60/517 523/66/517 522/65/517 
f 517/60/517 524/67/517 523/66/517 
f 517/60/517 525/68/517 524/67/517 
f 517/60/517 526/69/517 525/68/517 
f 517/60/517 527/70/517 526/69/517 
f 517/60/517 528/71/517 527/70/517 
f 517/60/517 529/72/517 528/71/517 
f 517/60/517 530/73/517 529/72/517 
f 517/60/517 531/74/517 530/73/517 
f 517/60/517 532/75/517 531/74/517 
f 517/60/517 533/76/517 532/75/517 
f 517/60/517 534/77/517 533/76/517 
f 517/60/517 535/78/517 534/77/517 
f 517/60/517 519/62/517 535/78/517 
f 519/62/517 518/61/517 536/79/518 537/80/519 
f 518/61/517 520/63/517 538/81/517 536/79/518 
f 520/63/517 521/64/517 539/82/517 538/81/517 
f 521/64/517 522/65/517 540/83/517 539/82/517 
f 522/65/517 523/66/517 541/84/517 540/83/517 
f 523/66/517 524/67/517 542/85/517 541/84/517 
f 524/67/517 525/68/517 543/86/520 542/85/517 
f 525/68/517 526/69/517 544/87/517 543/86/520 
f 526/69/517 527/70/517 545/88/517 544/87/517 
f 527/70/517 528/71/517 546/89/517 545/88/517 
f 528/71/517 529/72/517 547/90/517 546/89/517 
f 529/72/517 530/73/517 548/91/517 547/90/517 
f 530/73/517 531/74/517 549/92/517 548/91/517 
f 531/74/517 532/75/517 550/93/517 549/92/517 
f 532/75/517 533/76/517 551/94/517 550/93/517 
f 533/76/517 534/77/517 552/95/517 551/94/517 
f 534/77/517 535/78/517 553/96/519 552/95/517 
f 535/78/517 519/62/517 537/80/519 553/96/519 
f 537/80/519 536/79/518 554/97/519 555/98/519 
f 536/79/518 538/81/517 556/99/518 554/97/519 
f 538/81/517 539/82/517 557/100/517 556/99/518 
f 539/82/517 540/83/517 558/101/517 557/100/517 
f 540/83/517 541/84/517 559/102/517 558/101/517 
f 541/84/517 542/85/517 560/103/517 559/102/517 
f 542/85/517 543/86/520 561/104/520 560/103/517 
f 543/86/520 544/87/517 562/105/518 561/104/520 
f 544/87/517 545/88/517 563/106/517 562/105/518 
f 545/88/517 546/89/517 564/107/519 563/106/517 
f 546/89/517 547/90/517 565/108/517 564/107/519 
f 547/90/517 548/91/517 566/109/520 565/108/517 
f 548/91/517 549/92/517 567/110/517 566/109/520 
f 549/92/517 550/93/517 568/111/517 567/110/517 
f 550/93/517 551/94/517 569/112/517 568/111/517 
f 551/94/517 552/95/517 570/113/519 569/112/517 
f 552/95/517 553/96/519 571/114/518 570/113/519 
f 553/96/519 537/80/519 555/98/519 571/114/518 
f 555/98/519 554/97/519 572/115/521 573/116/522 
f 554/97/519 556/99/518 574/117/523 572/115/521 
f 556/99/518 557/100/517 575/118/524 574/117/523 
f 557/100/517 558/101/517 576/119/525 575/118/524 
f 558/101/517 559/102/517 577/120/526 576/119/525 
f 559/102/517 560/103/517 578/121/527 577/120/526 
f 560/103/517 561/104/520 579/122/528 578/121/527 
f 561/104/520 562/105/518 580/123/529 579/122/528 
f 562/105/518 563/106/517 581/124/530 580/123/529 
f 563/106/517 564/107/519 582/125/531 581/124/530 
f 564/107/519 565/108/517 583/126/532 582/125/531 
f 565/108/517 566/109/520 584/127/533 583/126/532 
f 566/109/520 567/110/517 585/128/534 584/127/533 
f 567/110/517 568/111/517 586/129/535 585/128/534 
f 568/111/517 569/112/517 587/130/536 586/129/535 
f 569/112/517 570/113/519 588/131/537 587/130/536 
f 570/113/519 571/114/518 589/132/538 588/131/537 
f 571/114/518 555/98/519 573/116/522 589/132/538 
s 2
f 590/133/539 591/134/540 592/135/541 593/136/542 
f 591/134/540 594/137/543 595/138/544 592/135/541 
f 594/137/543 596/139/545 597/140/546 595/138/544 
f 596/139/545 598/141/547 599/142/548 597/140/546 
f 598/143/547 600/144/549 601/145/550 599/146/548 
f 600/144/549 602/147/551 603/148/552 601/145/550 
f 602/147/551 604/149/553 605/150/554 603/148/552 
f 604/149/553 606/151/555 607/152/556 605/150/554 
f 606/151/555 608/153/557 609/154/558 607/152/556 
f 608/153/557 610/155/559 611/156/560 609/154/558 
f 610/155/559 612/157/561 613/158/562 611/156/560 
f 612/157/561 614/159/563 615/160/564 613/158/562 
f 614/159/563 616/161/565 617/162/566 615/160/564 
f 616/161/565 618/163/567 619/164/568 617/162/566 
f 618/163/567 620/165/569 621/166/570 619/164/568 
f 620/165/569 622/167/571 623/168/572 621/166/570 
f 622/167/571 624/169/573 625/170/574 623/168/572 
f 624/169/573 590/133/539 593/136/542 625/170/574 
f 593/136/542 592/135/541 626/171/541 627/172/542 
f 592/135/541 595/138/544 628/173/544 626/171/541 
f 595/138/544 597/140/546 629/174/546 628/173/544 
f 597/140/546 599/142/548 630/175/548 629/174/546 
f 599/146/548 601/145/550 631/176/575 630/177/548 
f 601/145/550 603/148/552 632/178/576 631/176/575 
f 603/148/552 605/150/554 633/179/577 632/178/576 
f 605/150/554 607/152/556 634/180/578 633/179/577 
f 607/152/556 609/154/558 635/181/579 634/180/578 
f 609/154/558 611/156/560 636/182/560 635/181/579 
f 611/156/560 613/158/562 637/183/562 636/182/560 
f 613/158/562 615/160/564 638/184/580 637/183/562 
f 615/160/564 617/162/566 639/185/566 638/184/580 
f 617/162/566 619/164/568 640/186/568 639/185/566 
f 619/164/568 621/166/570 641/187/570 640/186/568 
f 621/166/570 623/168/572 642/188/572 641/187/570 
f 623/168/572 625/170/574 643/189/574 642/188/572 
f 625/170/574 593/136/542 627/172/542 643/189/574 
f 627/172/542 626/171/541 644/190/541 645/191/542 
f 626/171/541 628/173/544 646/192/544 644/190/541 
f 628/173/544 629/174/546 647/193/546 646/192/544 
f 629/174/546 630/175/548 648/194/548 647/193/546 
f 630/177/548 631/176/575 649/195/575 648/196/548 
f 631/176/575 632/178/576 650/197/576 649/195/575 
f 632/178/576 633/179/577 651/198/577 650/197/576 
f 633/179/577 634/180/578 652/199/578 651/198/577 
f 634/180/578 635/181/579 653/200/579 652/199/578 
f 635/181/579 636/182/560 654/201/560 653/200/579 
f 636/182/560 637/183/562 655/202/562 654/201/560 
f 637/183/562 638/184/580 656/203/580 655/202/562 
f 638/184/580 639/185/566 657/204/566 656/203/580 
f 639/185/566 640/186/568 658/205/568 657/204/566 
f 640/186/568 641/187/570 659/206/570 658/205/568 
f 641/187/570 642/188/572 660/207/572 659/206/570 
f 642/188/572 643/189/574 661/208/574 660/207/572 
f 643/189/574 627/172/542 645/191/542 661/208/574 
f 645/191/542 644/190/541 662/209/581 663/210/582 
f 644/190/541 646/192/544 664/211/583 662/209/581 
f 646/192/544 647/193/546 665/212/546 664/211/583 
f 647/193/546 648/194/548 666/213/584 665/212/546 
f 648/196/548 649/195/575 667/214/575 666/215/584 
f 649/195/575 650/197/576 668/216/576 667/214/575 
f 650/197/576 651/198/577 669/217/577 668/216/576 
f 651/198/577 652/199/578 670/218/578 669/217/577 
f 652/199/578 653/200/579 671/219/558 670/218/578 
f 653/200/579 654/201/560 672/220/560 671/219/558 
f 654/201/560 655/202/562 673/221/562 672/220/560 
f 655/202/562 656/203/580 674/222/580 673/221/562 
f 656/203/580 657/204/566 675/223/566 674/222/580 
f 657/204/566 658/205/568 676/224/585 675/223/566 
f 658/205/568 659/206/570 677/225/586 676/224/585 
f 659/206/570 660/207/572 678/226/587 677/225/586 
f 660/207/572 661/208/574 679/227/588 678/226/587 
f 661/208/574 645/191/542 663/210/582 679/227/588 
f 663/210/582 662/209/581 680/228/589 681/229/590 
f 662/209/581 664/211/583 682/230/591 680/228/589 
f 664/211/583 665/212/546 683/231/592 682/230/591 
f 665/212/546 666/213/584 684/232/593 683/231/592 
f 666/215/584 667/214/575 685/233/594 684/234/593 
f 667/214/575 668/216/576 686/235/595 685/233/594 
f 668/216/576 669/217/577 687/236/596 686/235/595 
f 669/217/577 670/218/578 688/237/597 687/236/596 
f 670/218/578 671/219/558 689/238/598 688/237/597 
f 671/219/558 672/220/560 690/239/599 689/238/598 
f 672/220/560 673/221/562 691/240/600 690/239/599 
f 673/221/562 674/222/580 692/241/601 691/240/600 
f 674/222/580 675/223/566 693/242/602 692/241/601 
f 675/223/566 676/224/585 694/243/603 693/242/602 
f 676/224/585 677/225/586 695/244/604 694/243/603 
f 677/225/586 678/226/587 696/245/605 695/244/604 
f 678/226/587 679/227/588 697/246/606 696/245/605 
f 679/227/588 663/210/582 681/229/590 697/246/606 
f 698/247/607 699/248/608 700/114/609 701/98/610 
f 699/248/608 702/249/611 703/113/612 700/114/609 
f 702/249/611 704/250/613 705/112/614 703/113/612 
f 704/250/613 706/251/615 707/111/616 705/112/614 
f 706/251/615 708/252/617 709/110/618 707/111/616 
f 708/252/617 710/253/619 711/109/620 709/110/618 
f 710/253/619 712/254/621 713/108/622 711/109/620 
f 712/254/621 714/255/623 715/107/624 713/108/622 
f 714/255/623 716/256/625 717/106/626 715/107/624 
f 716/256/625 718/257/627 719/258/628 717/106/626 
f 718/257/627 720/259/629 721/104/630 719/258/628 
f 720/259/629 722/260/631 723/103/632 721/104/630 
f 722/260/631 724/261/633 725/102/634 723/103/632 
f 724/261/633 726/262/635 727/101/636 725/102/634 
f 726/262/635 728/263/637 729/100/638 727/101/636 
f 728/263/637 730/264/639 731/99/640 729/100/638 
f 730/264/639 732/265/641 733/266/642 731/99/640 
f 732/265/641 698/247/607 701/98/610 733/266/642 
s 1
f 734/98/643 735/114/644 736/267/645 737/268/646 
f 735/114/644 738/113/647 739/269/645 736/267/645 
f 738/113/647 740/112/648 741/270/645 739/269/645 
f 740/112/648 742/111/649 743/271/645 741/270/645 
f 742/111/649 744/110/650 745/272/651 743/271/645 
f 744/110/650 746/109/652 747/273/651 745/272/651 
f 746/109/652 748/108/653 749/274/651 747/273/651 
f 748/108/653 750/107/654 751/275/651 749/274/651 
f 750/107/654 752/106/655 753/276/651 751/275/651 
f 752/106/655 754/258/656 755/277/657 753/276/651 
f 754/258/656 756/104/658 757/278/657 755/277/657 
f 756/104/658 758/103/659 759/279/657 757/278/657 
f 758/103/659 760/102/660 761/280/657 759/279/657 
f 760/102/660 762/101/661 763/281/646 761/280/657 
f 762/101/661 764/100/662 765/282/646 763/281/646 
f 764/100/662 766/99/663 767/283/646 765/282/646 
f 766/99/663 768/266/664 769/284/646 767/283/646 
f 768/266/664 734/98/643 737/268/646 769/284/646 
f 770/80/665 771/96/666 772/78/667 773/62/668 
f 771/96/666 774/95/669 775/77/670 772/78/667 
f 774/95/669 776/94/671 777/76/672 775/77/670 
f 776/94/671 778/93/673 779/75/674 777/76/672 
f 778/93/673 780/92/675 781/74/676 779/75/674 
f 780/92/675 782/91/677 783/73/678 781/74/676 
f 782/91/677 784/90/679 785/72/680 783/73/678 
f 784/90/679 786/89/681 787/71/682 785/72/680 
f 786/89/681 788/88/683 789/70/684 787/71/682 
f 788/88/683 790/87/685 791/69/686 789/70/684 
f 790/87/685 792/86/687 793/68/688 791/69/686 
f 792/86/687 794/85/689 795/67/690 793/68/688 
f 794/85/689 796/84/691 797/66/692 795/67/690 
f 796/84/691 798/83/693 799/65/694 797/66/692 
f 798/83/693 800/82/695 801/64/696 799/65/694 
f 800/82/695 802/81/697 803/63/698 801/64/696 
f 802/81/697 804/79/699 805/61/700 803/63/698 
f 804/79/699 770/80/665 773/62/668 805/61/700 
f 806/60/701 773/62/668 772/78/667 
f 806/60/701 772/78/667 775/77/670 
f 806/60/701 775/77/670 777/76/672 
f 806/60/701 777/76/672 779/75/674 
f 806/60/701 779/75/674 781/74/676 
f 806/60/701 781/74/676 783/73/678 
f 806/60/701 783/73/678 785/72/680 
f 806/60/701 785/72/680 787/71/682 
f 806/60/701 787/71/682 789/70/684 
f 806/60/701 789/70/684 791/69/686 
f 806/60/701 791/69/686 793/68/688 
f 806/60/701 793/68/688 795/67/690 
f 806/60/701 795/67/690 797/66/692 
f 806/60/701 797/66/692 799/65/694 
f 806/60/701 799/65/694 801/64/696 
f 806/60/701 801/64/696 803/63/698 
f 806/60/701 803/63/698 805/61/700 
f 806/60/701 805/61/700 773/62/668 
f 572/285/521 807/286/702 808/287/703 573/288/522 
f 574/289/523 809/290/704 807/291/702 572/292/521 
f 575/293/524 810/294/705 809/295/704 574/296/523 
f 576/297/525 811/298/706 810/299/705 575/300/524 
f 577/301/526 812/302/707 811/303/706 576/304/525 
f 578/305/527 813/306/708 812/307/707 577/308/526 
f 579/309/528 814/310/709 813/311/708 578/312/527 
f 580/313/529 815/314/710 814/315/709 579/316/528 
f 581/317/530 816/318/711 815/319/710 580/320/529 
f 582/321/531 817/322/712 816/323/711 581/324/530 
f 583/325/532 818/326/713 817/327/712 582/328/531 
f 584/329/533 819/330/714 818/331/713 583/332/532 
f 585/333/534 820/334/715 819/335/714 584/336/533 
f 586/337/535 821/338/716 820/339/715 585/340/534 
f 587/341/536 822/342/717 821/343/716 586/344/535 
f 588/345/537 823/346/718 822/347/717 587/348/536 
f 589/349/538 824/350/719 823/351/718 588/352/537 
f 573/353/522 808/354/703 824/355/719 589/356/538 
s 2
f 807/286/702 591/134/540 590/133/539 808/287/703 
f 809/290/704 594/137/543 591/134/540 807/291/702 
f 810/294/705 596/139/545 594/137/543 809/295/704 
f 811/298/706 598/141/547 596/139/545 810/299/705 
f 812/302/707 600/144/549 598/143/547 811/303/706 
f 813/306/708 602/147/551 600/144/549 812/307/707 
f 814/310/709 604/149/553 602/147/551 813/311/708 
f 815/314/710 606/151/555 604/149/553 814/315/709 
f 816/318/711 608/153/557 606/151/555 815/319/710 
f 817/322/712 610/155/559 608/153/557 816/323/711 
f 818/326/713 612/157/561 610/155/559 817/327/712 
f 819/330/714 614/159/563 612/157/561 818/331/713 
f 820/334/715 616/161/565 614/159/563 819/335/714 
f 821/338/716 618/163/567 616/161/565 820/339/715 
f 822/342/717 620/165/569 618/163/567 821/343/716 
f 823/346/718 622/167/571 620/165/569 822/347/717 
f 824/350/719 624/169/573 622/167/571 823/351/718 
f 808/354/703 590/133/539 624/169/573 824/355/719 
s 4
f 701/98/610 700/114/609 825/114/541 826/98/542 
f 700/114/609 703/113/612 827/113/544 825/114/541 
f 703/113/612 705/112/614 828/112/546 827/113/544 
f 705/112/614 707/111/616 829/111/548 828/112/546 
f 707/111/616 709/110/618 830/110/575 829/111/548 
f 709/110/618 711/109/620 831/109/576 830/110/575 
f 711/109/620 713/108/622 832/108/577 831/109/576 
f 713/108/622 715/107/624 833/107/578 832/108/577 
f 715/107/624 717/106/626 834/106/579 833/107/578 
f 717/106/626 719/258/628 835/258/560 834/106/579 
f 719/258/628 721/104/630 836/104/562 835/258/560 
f 721/104/630 723/103/632 837/103/580 836/104/562 
f 723/103/632 725/102/634 838/102/566 837/103/580 
f 725/102/634 727/101/636 839/101/568 838/102/566 
f 727/101/636 729/100/638 840/100/570 839/101/568 
f 729/100/638 731/99/640 841/99/572 840/100/570 
f 731/99/640 733/266/642 842/266/574 841/99/572 
f 733/266/642 701/98/610 826/98/542 842/266/574 
s 2
f 680/357/589 699/248/608 698/247/607 681/358/590 
f 682/359/591 702/249/611 699/248/608 680/360/589 
f 683/361/592 704/250/613 702/249/611 682/362/591 
f 684/363/593 706/251/615 704/250/613 683/364/592 
f 685/365/594 708/252/617 706/251/615 684/366/593 
f 686/367/595 710/253/619 708/252/617 685/368/594 
f 687/369/596 712/254/621 710/253/619 686/370/595 
f 688/371/597 714/255/623 712/254/621 687/372/596 
f 689/373/598 716/256/625 714/255/623 688/374/597 
f 690/375/599 718/257/627 716/256/625 689/376/598 
f 691/377/600 720/259/629 718/257/627 690/378/599 
f 692/379/601 722/260/631 720/259/629 691/380/600 
f 693/381/602 724/261/633 722/260/631 692/382/601 
f 694/383/603 726/262/635 724/261/633 693/384/602 
f 695/385/604 728/263/637 726/262/635 694/386/603 
f 696/387/605 730/264/639 728/263/637 695/388/604 
f 697/389/606 732/265/641 730/264/639 696/390/605 
f 681/391/590 698/247/607 732/265/641 697/392/606 
s off
f 826/98/542 825/114/541 735/114/644 734/98/643 
f 825/114/541 827/113/544 738/113/647 735/114/644 
f 827/113/544 828/112/546 740/112/648 738/113/647 
f 828/112/546 829/111/548 742/111/649 740/112/648 
f 829/111/548 830/110/575 744/110/650 742/111/649 
f 830/110/575 831/109/576 746/109/652 744/110/650 
f 831/109/576 832/108/577 748/108/653 746/109/652 
f 832/108/577 833/107/578 750/107/654 748/108/653 
f 833/107/578 834/106/579 752/106/655 750/107/654 
f 834/106/579 835/258/560 754/258/656 752/106/655 
f 835/258/560 836/104/562 756/104/658 754/258/656 
f 836/104/562 837/103/580 758/103/659 756/104/658 
f 837/103/580 838/102/566 760/102/660 758/103/659 
f 838/102/566 839/101/568 762/101/661 760/102/660 
f 839/101/568 840/100/570 764/100/662 762/101/661 
f 840/100/570 841/99/572 766/99/663 764/100/662 
f 841/99/572 842/266/574 768/266/664 766/99/663 
f 842/266/574 826/98/542 734/98/643 768/266/664 
s 1
f 736/267/645 771/96/666 770/80/665 737/268/646 
f 739/269/645 774/95/669 771/96/666 736/267/645 
f 741/270/645 776/94/671 774/95/669 739/269/645 
f 743/271/645 778/93/673 776/94/671 741/270/645 
f 745/272/651 780/92/675 778/93/673 743/271/645 
f 747/273/651 782/91/677 780/92/675 745/272/651 
f 749/274/651 784/90/679 782/91/677 747/273/651 
f 751/275/651 786/89/681 784/90/679 749/274/651 
f 753/276/651 788/88/683 786/89/681 751/275/651 
f 755/277/657 790/87/685 788/88/683 753/276/651 
f 757/278/657 792/86/687 790/87/685 755/277/657 
f 759/279/657 794/85/689 792/86/687 757/278/657 
f 761/280/657 796/84/691 794/85/689 759/279/657 
f 763/281/646 798/83/693 796/84/691 761/280/657 
f 765/282/646 800/82/695 798/83/693 763/281/646 
f 767/283/646 802/81/697 800/82/695 765/282/646 
f 769/284/646 804/79/699 802/81/697 767/283/646 
f 737/268/646 770/80/665 804/79/699 769/284/646 
# 306 polygons - 36 triangles

#
# object Base001
#

v  17.3122 0.0000 6.3011
v  14.1130 0.0000 11.8422
v  9.2116 0.0000 15.9550
v  3.1992 0.0000 18.1433
v  -3.1992 0.0000 18.1433
v  -9.2116 0.0000 15.9550
v  -14.1130 0.0000 11.8422
v  -17.3122 0.0000 6.3011
v  -18.4232 0.0000 -0.0000
v  -17.3122 0.0000 -6.3011
v  -14.1130 0.0000 -11.8422
v  -9.2116 0.0000 -15.9550
v  -3.1992 0.0000 -18.1433
v  3.1992 0.0000 -18.1433
v  9.2116 0.0000 -15.9550
v  14.1130 0.0000 -11.8422
v  17.3122 0.0000 -6.3011
v  18.4232 0.0000 -0.0000
v  17.3122 3.5164 -6.3011
v  18.4232 3.5164 -0.0000
v  14.1130 3.5164 -11.8422
v  9.2116 3.5164 -15.9550
v  3.1992 3.5164 -18.1433
v  -3.1992 3.5164 -18.1433
v  -9.2116 3.5164 -15.9550
v  -14.1130 3.5164 -11.8422
v  -17.3122 3.5164 -6.3011
v  -18.4232 3.5164 -0.0000
v  -17.3122 3.5164 6.3011
v  -14.1130 3.5164 11.8422
v  -9.2116 3.5164 15.9550
v  -3.1992 3.5164 18.1433
v  3.1992 3.5164 18.1433
v  9.2116 3.5164 15.9550
v  14.1130 3.5164 11.8422
v  17.3122 3.5164 6.3011
# 36 vertices

vn 0.6976 -0.6700 0.2539
vn 0.5687 -0.6700 0.4772
vn 0.3712 -0.6700 0.6429
vn 0.1289 -0.6700 0.7311
vn -0.1289 -0.6700 0.7311
vn -0.3712 -0.6700 0.6429
vn -0.5687 -0.6700 0.4772
vn -0.6976 -0.6700 0.2539
vn -0.7423 -0.6700 -0.0000
vn -0.6976 -0.6700 -0.2539
vn -0.5687 -0.6700 -0.4772
vn -0.3712 -0.6701 -0.6428
vn -0.1289 -0.6701 -0.7310
vn 0.1289 -0.6700 -0.7311
vn 0.3711 -0.6701 -0.6429
vn 0.5686 -0.6701 -0.4771
vn 0.6976 -0.6700 -0.2539
vn 0.7423 -0.6701 -0.0000
vn 0.6976 0.6700 -0.2539
vn 0.7423 0.6701 0.0000
vn 0.5686 0.6701 -0.4771
vn 0.3711 0.6701 -0.6429
vn 0.1289 0.6700 -0.7311
vn -0.1289 0.6701 -0.7310
vn -0.3712 0.6701 -0.6428
vn -0.5687 0.6700 -0.4772
vn -0.6976 0.6700 -0.2539
vn -0.7423 0.6700 -0.0000
vn -0.6976 0.6700 0.2539
vn -0.5687 0.6700 0.4772
vn -0.3712 0.6700 0.6429
vn -0.1289 0.6700 0.7311
vn 0.1289 0.6700 0.7311
vn 0.3712 0.6700 0.6429
vn 0.5687 0.6700 0.4772
vn 0.6975 0.6701 0.2539
# 36 vertex normals

vt 67.8892 46.4390 0.0000
vt 61.8115 56.9659 0.0000
vt 52.5000 64.7792 0.0000
vt 41.0777 68.9365 0.0000
vt 28.9223 68.9365 0.0000
vt 17.5000 64.7792 0.0000
vt 8.1884 56.9658 0.0000
vt 2.1108 46.4390 0.0000
vt 0.0000 34.4683 0.0000
vt 2.1108 22.4976 0.0000
vt 8.1884 11.9707 0.0000
vt 17.5000 4.1574 0.0000
vt 28.9223 0.0000 0.0000
vt 41.0777 0.0000 0.0000
vt 52.5000 4.1574 0.0000
vt 61.8116 11.9707 0.0000
vt 67.8892 22.4976 0.0000
vt 70.0000 34.4683 0.0000
vt 164.9336 0.0000 1.0000
vt 177.1509 0.0000 1.0000
vt 177.1509 5.0000 1.0000
vt 164.9336 5.0000 1.0000
vt 189.3682 0.0000 1.0000
vt 189.3682 5.0000 1.0000
vt 201.5855 0.0000 1.0000
vt 201.5855 5.0000 1.0000
vt 213.8028 0.0000 1.0000
vt 213.8028 5.0000 1.0000
vt -6.1087 0.0000 1.0000
vt 6.1087 0.0000 1.0000
vt 6.1087 5.0000 1.0000
vt -6.1087 5.0000 1.0000
vt 18.3260 0.0000 1.0000
vt 18.3260 5.0000 1.0000
vt 30.5433 0.0000 1.0000
vt 30.5433 5.0000 1.0000
vt 42.7606 0.0000 1.0000
vt 42.7606 5.0000 1.0000
vt 54.9779 0.0000 1.0000
vt 54.9779 5.0000 1.0000
vt 67.1952 0.0000 1.0000
vt 67.1952 5.0000 1.0000
vt 79.4125 0.0000 1.0000
vt 79.4125 5.0000 1.0000
vt 91.6298 0.0000 1.0000
vt 91.6298 5.0000 1.0000
vt 103.8471 0.0000 1.0000
vt 103.8471 5.0000 1.0000
vt 116.0644 0.0000 1.0000
vt 116.0644 5.0000 1.0000
vt 128.2817 0.0000 1.0000
vt 128.2817 5.0000 1.0000
vt 140.4990 0.0000 1.0000
vt 140.4990 5.0000 1.0000
vt 152.7163 0.0000 1.0000
vt 152.7163 5.0000 1.0000
vt 67.8892 22.4975 0.0000
vt 61.8116 56.9658 0.0000
vt 61.8115 11.9707 0.0000
# 59 texture coords

o Base001
g Base001
usemtl wire_177088027
s 1
f 843/393/720 844/394/721 845/395/722 846/396/723 847/397/724 848/398/725 849/399/726 850/400/727 851/401/728 852/402/729 853/403/730 854/404/731 855/405/732 856/406/733 857/407/734 858/408/735 859/409/736 860/410/737 
s 8
f 860/411/737 859/412/736 861/413/738 862/414/739 
f 859/412/736 858/415/735 863/416/740 861/413/738 
f 858/415/735 857/417/734 864/418/741 863/416/740 
f 857/417/734 856/419/733 865/420/742 864/418/741 
f 856/421/733 855/422/732 866/423/743 865/424/742 
f 855/422/732 854/425/731 867/426/744 866/423/743 
f 854/425/731 853/427/730 868/428/745 867/426/744 
f 853/427/730 852/429/729 869/430/746 868/428/745 
f 852/429/729 851/431/728 870/432/747 869/430/746 
f 851/431/728 850/433/727 871/434/748 870/432/747 
f 850/433/727 849/435/726 872/436/749 871/434/748 
f 849/435/726 848/437/725 873/438/750 872/436/749 
f 848/437/725 847/439/724 874/440/751 873/438/750 
f 847/439/724 846/441/723 875/442/752 874/440/751 
f 846/441/723 845/443/722 876/444/753 875/442/752 
f 845/443/722 844/445/721 877/446/754 876/444/753 
f 844/445/721 843/447/720 878/448/755 877/446/754 
f 843/447/720 860/411/737 862/414/739 878/448/755 
s 1
f 878/449/755 862/410/739 861/393/738 863/450/740 864/395/741 865/396/742 866/397/743 867/398/744 868/399/745 869/400/746 870/401/747 871/402/748 872/403/749 873/404/750 874/405/751 875/406/752 876/407/753 877/451/754 
# 20 polygons

