# 3ds Max Wavefront OBJ Exporter v0.97b - (c)2007 guruware
# File Created: 05.12.2019 23:09:20

mtllib wall and floor_obg.mtl

#
# object Plane001
#

v  -519.9757 0.0000 -168.7930
v  537.5558 0.0000 -168.7930
v  -519.9757 0.0000 -1147.4578
v  537.5558 0.0000 -1147.4578
v  537.5558 633.7793 -168.7930
v  -519.9757 633.7793 -1147.4578
v  537.5558 633.7793 -1147.4578
# 7 vertices

vn 0.0000 0.7071 0.7071
vn 0.0000 1.0000 -0.0000
vn -0.7071 0.7071 -0.0000
vn -0.5774 0.5774 0.5774
vn 0.0000 0.7071 0.7071
vn -0.5774 0.5774 0.5774
vn -0.7071 0.0000 0.7071
vn 0.0000 0.0000 1.0000
vn -0.5774 0.5774 0.5774
vn -0.7071 0.7071 -0.0000
vn -1.0000 0.0000 -0.0000
vn -0.7071 0.0000 0.7071
# 12 vertex normals

vt 0.3775 0.0020 0.0000
vt 0.9492 0.0020 0.0000
vt 0.9492 0.6198 0.0000
vt 0.3775 0.6198 0.0000
vt 0.0020 0.6198 0.0000
vt 0.0020 0.0020 0.0000
vt 0.5737 0.9980 0.0000
vt 0.0020 0.9980 0.0000
vt 0.0020 0.6278 0.0000
vt 0.5737 0.6278 0.0000
vt 0.3722 0.0020 0.0000
vt 0.3722 0.6198 0.0000
# 12 texture coords

o Plane001
g Plane001
usemtl wire_086086086
f 3/1/1 1/2/2 2/3/3 4/4/4 
f 3/5/5 4/6/6 7/11/7 6/12/8 
f 4/7/9 2/8/10 5/9/11 7/10/12 
# 3 polygons

